0"Alarm","2018/01/17","00:20:21","",""
"Standby","2018/01/17","00:56:43","",""
"Working","2018/01/17","00:56:43","",""
"Standby","2018/01/17","00:56:43","",""
"Working","2018/01/17","00:56:43","",""
"Standby","2018/01/17","01:03:48","",""
"Standby","2018/01/17","01:03:48","",""
"Working","2018/01/17","01:03:49","",""
"Working","2018/01/17","01:03:49","",""
"Standby","2018/01/17","01:09:24","",""
"Working","2018/01/17","01:09:25","",""
"Standby","2018/01/17","01:09:25","",""
"Working","2018/01/17","01:09:25","",""
"Alarm","2018/01/17","01:09:27","",""
"Standby","2018/01/17","01:09:28","",""
"Standby","2018/01/17","01:09:28","",""
"Alarm","2018/01/17","01:10:30","0000002503"," SAFETY STOP"
"Alarm","2018/01/17","01:10:30","0000002576"," OSCILLATOR MAINTENANCE REQUIRED"
"Planning","2018/01/17","01:16:45","",""
"Standby","2018/01/17","01:20:12","",""
"Planning","2018/01/17","01:20:14","",""
"Standby","2018/01/17","01:20:40","",""
"Alarm","2018/01/17","01:20:47","0000002503"," SAFETY STOP"
"Alarm","2018/01/17","01:20:47","0000002576"," OSCILLATOR MAINTENANCE REQUIRED"
"Standby","2018/01/17","01:28:33","",""
"Planning","2018/01/17","01:29:01","",""
"Standby","2018/01/17","01:29:31","",""
"Working","2018/01/17","01:29:40","",""
"Alarm","2018/01/17","01:36:36","",""
"Planning","2018/01/17","01:36:39","",""
"Working","2018/01/17","01:36:42","",""
"Standby","2018/01/17","01:46:50","",""
"Working","2018/01/17","01:46:51","",""
"Working","2018/01/17","01:46:52","",""
"Standby","2018/01/17","02:01:36","",""
"Working","2018/01/17","02:01:36","",""
"Standby","2018/01/17","02:01:36","",""
"Alarm","2018/01/17","02:01:48","",""
"Standby","2018/01/17","02:01:48","",""
"Standby","2018/01/17","02:01:48","",""
"Working","2018/01/17","02:01:49","",""
"Working","2018/01/17","02:01:49","",""
"Alarm","2018/01/17","02:01:51","",""
"Standby","2018/01/17","02:05:05","",""
"Standby","2018/01/17","02:05:05","",""
"Working","2018/01/17","02:05:06","",""
"Working","2018/01/17","02:05:06","",""
"Standby","2018/01/17","02:40:21","",""
"Standby","2018/01/17","02:40:22","",""
"Planning","2018/01/17","02:40:23","",""
"Standby","2018/01/17","02:40:50","",""
"Working","2018/01/17","02:40:54","",""
"Working","2018/01/17","02:40:54","",""
"Standby","2018/01/17","03:05:30","",""
"Standby","2018/01/17","03:05:30","",""
"Working","2018/01/17","03:05:34","",""
"Working","2018/01/17","03:05:34","",""
"Alarm","2018/01/17","05:55:07","0000002613"," WORK SET NOT READY"
"Alarm","2018/01/17","05:55:07","0000002576"," OSCILLATOR MAINTENANCE REQUIRED"
"Alarm","2018/01/17","05:55:07","",""
"Working","2018/01/17","05:55:07","",""
"Standby","2018/01/17","05:57:03","",""
"Standby","2018/01/17","05:57:03","",""
"Planning","2018/01/17","05:58:48","",""
"Standby","2018/01/17","05:59:14","",""
"Planning","2018/01/17","07:17:54","",""
"Standby","2018/01/17","07:18:21","",""
"Planning","2018/01/17","07:18:51","",""
"Standby","2018/01/17","07:19:04","",""
"Planning","2018/01/17","07:19:08","",""
"Standby","2018/01/17","07:25:16","",""
"Planning","2018/01/17","07:25:21","",""
"Standby","2018/01/17","07:26:25","",""
"Working","2018/01/17","07:26:29","",""
"Alarm","2018/01/17","07:30:53","0000002503"," SAFETY STOP"
"Alarm","2018/01/17","07:30:53","0000002576"," OSCILLATOR MAINTENANCE REQUIRED"
"Alarm","2018/01/17","07:30:53","",""
"Working","2018/01/17","07:30:53","",""
"Standby","2018/01/17","07:31:47","",""
"Working","2018/01/17","07:31:49","",""
"Working","2018/01/17","07:31:50","",""
"Alarm","2018/01/17","08:03:33","",""
"Working","2018/01/17","08:04:06","",""
"Alarm","2018/01/17","08:05:46","",""
"Working","2018/01/17","08:05:52","",""
"Alarm","2018/01/17","08:07:33","",""
"Standby","2018/01/17","08:07:36","",""
"Standby","2018/01/17","08:07:36","",""
"Planning","2018/01/17","08:07:53","",""
"Standby","2018/01/17","08:08:07","",""
"Planning","2018/01/17","08:08:12","",""
"Standby","2018/01/17","08:08:16","",""
"Planning","2018/01/17","08:08:25","",""
"Alarm","2018/01/17","08:08:35","0000002503"," SAFETY STOP"
"Alarm","2018/01/17","08:08:35","0000002576"," OSCILLATOR MAINTENANCE REQUIRED"
"Planning","2018/01/17","08:08:35","",""
"Alarm","2018/01/17","08:09:06","0000002503"," SAFETY STOP"
"Alarm","2018/01/17","08:09:06","0000002576"," OSCILLATOR MAINTENANCE REQUIRED"
"Planning","2018/01/17","08:09:07","",""
"Alarm","2018/01/17","08:10:03","0000002503"," SAFETY STOP"
"Alarm","2018/01/17","08:10:03","0000002576"," OSCILLATOR MAINTENANCE REQUIRED"
"Planning","2018/01/17","08:10:03","",""
"Alarm","2018/01/17","08:10:24","0000002503"," SAFETY STOP"
"Alarm","2018/01/17","08:10:24","0000002576"," OSCILLATOR MAINTENANCE REQUIRED"
"Planning","2018/01/17","08:10:24","",""
"Alarm","2018/01/17","08:11:37","0000002503"," SAFETY STOP"
"Alarm","2018/01/17","08:11:37","0000002576"," OSCILLATOR MAINTENANCE REQUIRED"
"Planning","2018/01/17","08:11:37","",""
"Alarm","2018/01/17","08:12:01","0000002503"," SAFETY STOP"
"Alarm","2018/01/17","08:12:01","0000002576"," OSCILLATOR MAINTENANCE REQUIRED"
"Planning","2018/01/17","08:12:01","",""
"Alarm","2018/01/17","08:12:22","0000002503"," SAFETY STOP"
"Alarm","2018/01/17","08:12:22","0000002576"," OSCILLATOR MAINTENANCE REQUIRED"
"Planning","2018/01/17","08:12:22","",""
"Alarm","2018/01/17","08:12:50","0000002503"," SAFETY STOP"
"Alarm","2018/01/17","08:12:50","0000002576"," OSCILLATOR MAINTENANCE REQUIRED"
"Planning","2018/01/17","08:12:50","",""
"Alarm","2018/01/17","08:13:19","0000002503"," SAFETY STOP"
"Alarm","2018/01/17","08:13:19","0000002576"," OSCILLATOR MAINTENANCE REQUIRED"
"Planning","2018/01/17","08:13:19","",""
"Alarm","2018/01/17","08:14:31","0000002503"," SAFETY STOP"
"Alarm","2018/01/17","08:14:31","0000002576"," OSCILLATOR MAINTENANCE REQUIRED"
"Planning","2018/01/17","08:14:31","",""
"Alarm","2018/01/17","08:23:19","0000002503"," SAFETY STOP"
"Alarm","2018/01/17","08:23:19","0000002576"," OSCILLATOR MAINTENANCE REQUIRED"
"Planning","2018/01/17","08:23:19","",""
"Alarm","2018/01/17","08:23:51","0000002503"," SAFETY STOP"
"Alarm","2018/01/17","08:23:51","0000002576"," OSCILLATOR MAINTENANCE REQUIRED"
"Planning","2018/01/17","08:23:51","",""
"Alarm","2018/01/17","08:24:36","0000002503"," SAFETY STOP"
"Alarm","2018/01/17","08:24:36","0000002576"," OSCILLATOR MAINTENANCE REQUIRED"
"Planning","2018/01/17","08:24:36","",""
"Standby","2018/01/17","08:25:25","",""
"Planning","2018/01/17","08:25:27","",""
"Standby","2018/01/17","08:26:08","",""
"Working","2018/01/17","08:26:11","",""
"Working","2018/01/17","08:26:11","",""
"Alarm","2018/01/17","08:26:27","",""
"Standby","2018/01/17","08:26:30","",""
"Standby","2018/01/17","08:26:30","",""
"Planning","2018/01/17","08:26:34","",""
"Standby","2018/01/17","08:26:54","",""
"Working","2018/01/17","08:26:58","",""
"Working","2018/01/17","08:26:58","",""
"Planning","2018/01/17","08:31:34","",""
"Alarm","2018/01/17","08:31:39","0000002503"," SAFETY STOP"
"Alarm","2018/01/17","08:31:39","0000002576"," OSCILLATOR MAINTENANCE REQUIRED"
"Planning","2018/01/17","08:31:39","",""
"Standby","2018/01/17","08:32:08","",""
"Working","2018/01/17","08:32:57","",""
"Working","2018/01/17","08:32:57","",""
"Alarm","2018/01/17","08:33:03","",""
"Standby","2018/01/17","08:33:11","",""
"Standby","2018/01/17","08:33:11","",""
"Planning","2018/01/17","08:33:18","",""
"Standby","2018/01/17","08:33:41","",""
"Working","2018/01/17","08:33:43","",""
"Working","2018/01/17","08:33:44","",""
"Alarm","2018/01/17","08:35:25","",""
"Alarm","2018/01/17","08:35:25","0000002681"," STOP BUTTON"
"Alarm","2018/01/17","08:35:25","0000002503"," SAFETY STOP"
"Alarm","2018/01/17","08:35:25","0000002576"," OSCILLATOR MAINTENANCE REQUIRED"
"Standby","2018/01/17","08:36:25","",""
"Planning","2018/01/17","08:36:27","",""
"Standby","2018/01/17","08:36:47","",""
"Working","2018/01/17","08:36:50","",""
"Working","2018/01/17","08:36:50","",""
"Alarm","2018/01/17","08:38:27","",""
"Alarm","2018/01/17","08:38:28","0000002681"," STOP BUTTON"
"Alarm","2018/01/17","08:38:28","0000002503"," SAFETY STOP"
"Alarm","2018/01/17","08:38:28","0000002576"," OSCILLATOR MAINTENANCE REQUIRED"
"Working","2018/01/17","08:38:59","",""
"Planning","2018/01/17","09:58:07","",""
"Planning","2018/01/17","09:58:07","",""
"Standby","2018/01/17","09:58:10","",""
"Planning","2018/01/17","09:58:13","",""
"Standby","2018/01/17","09:58:39","",""
"Working","2018/01/17","09:58:44","",""
"Working","2018/01/17","09:58:45","",""
"Standby","2018/01/17","10:57:09","",""
"Standby","2018/01/17","10:57:09","",""
"Planning","2018/01/17","10:57:27","",""
"Standby","2018/01/17","10:58:07","",""
"Planning","2018/01/17","10:58:08","",""
"Standby","2018/01/17","10:58:34","",""
"Planning","2018/01/17","10:58:39","",""
"Standby","2018/01/17","10:59:55","",""
"Working","2018/01/17","11:00:03","",""
"Working","2018/01/17","11:00:04","",""
"Planning","2018/01/17","11:54:34","",""
"Planning","2018/01/17","11:54:34","",""
"Standby","2018/01/17","11:54:36","",""
"Planning","2018/01/17","11:54:40","",""
"Standby","2018/01/17","11:55:06","",""
"Working","2018/01/17","11:55:18","",""
"Alarm","2018/01/17","11:55:22","",""
"Working","2018/01/17","11:55:36","",""
"Alarm","2018/01/17","12:16:05","",""
"Alarm","2018/01/17","13:00:04","0000002503"," SAFETY STOP"
"Alarm","2018/01/17","13:00:04","0000002576"," OSCILLATOR MAINTENANCE REQUIRED"
"Alarm","2018/01/17","13:00:04","",""
"Working","2018/01/17","13:00:04","",""
"Standby","2018/01/17","13:02:02","",""
"Planning","2018/01/17","13:02:04","",""
"Standby","2018/01/17","13:02:08","",""
"Planning","2018/01/17","13:03:05","",""
"Alarm","2018/01/17","13:07:59","0000002503"," SAFETY STOP"
"Alarm","2018/01/17","13:07:59","0000002576"," OSCILLATOR MAINTENANCE REQUIRED"
"Planning","2018/01/17","13:07:59","",""
"Standby","2018/01/17","13:08:39","",""
"Working","2018/01/17","13:08:43","",""
"Working","2018/01/17","13:08:43","",""
"Alarm","2018/01/17","13:11:28","",""
"Alarm","2018/01/17","13:11:29","0000002681"," STOP BUTTON"
"Alarm","2018/01/17","13:11:29","0000002503"," SAFETY STOP"
"Alarm","2018/01/17","13:11:29","0000002576"," OSCILLATOR MAINTENANCE REQUIRED"
"Planning","2018/01/17","13:12:52","",""
"Planning","2018/01/17","13:20:43","",""
"Standby","2018/01/17","13:20:44","",""
"Planning","2018/01/17","13:20:49","",""
"Standby","2018/01/17","13:20:57","",""
"Working","2018/01/17","13:21:01","",""
"Working","2018/01/17","13:21:01","",""
"Alarm","2018/01/17","13:23:47","",""
"Alarm","2018/01/17","13:23:48","0000002681"," STOP BUTTON"
"Alarm","2018/01/17","13:23:48","0000002503"," SAFETY STOP"
"Alarm","2018/01/17","13:23:48","0000002576"," OSCILLATOR MAINTENANCE REQUIRED"
"Working","2018/01/17","13:24:16","",""
"Alarm","2018/01/17","13:34:58","",""
"Alarm","2018/01/17","13:35:00","0000002681"," STOP BUTTON"
"Alarm","2018/01/17","13:35:00","0000002503"," SAFETY STOP"
"Alarm","2018/01/17","13:35:00","0000002576"," OSCILLATOR MAINTENANCE REQUIRED"
"Working","2018/01/17","13:35:44","",""
"Planning","2018/01/17","13:55:36","",""
"Alarm","2018/01/17","13:55:37","0000002681"," STOP BUTTON"
"Alarm","2018/01/17","13:55:37","0000002503"," SAFETY STOP"
"Alarm","2018/01/17","13:55:37","0000002576"," OSCILLATOR MAINTENANCE REQUIRED"
"Planning","2018/01/17","13:55:37","",""
"Working","2018/01/17","13:55:48","",""
"Planning","2018/01/17","13:56:54","",""
"Planning","2018/01/17","13:56:54","",""
"Standby","2018/01/17","13:56:55","",""
"Planning","2018/01/17","13:57:24","",""
"Standby","2018/01/17","13:57:51","",""
"Working","2018/01/17","13:58:03","",""
"Working","2018/01/17","13:58:03","",""
"Alarm","2018/01/17","14:40:51","",""
"Standby","2018/01/17","14:40:52","",""
"Standby","2018/01/17","14:40:52","",""
"Planning","2018/01/17","14:40:53","",""
"Alarm","2018/01/17","14:40:56","0000002601"," LIGHT SAFETY CURTAIN DEACTIVATED"
"Alarm","2018/01/17","14:40:56","0000002576"," OSCILLATOR MAINTENANCE REQUIRED"
"Planning","2018/01/17","14:40:56","",""
"Alarm","2018/01/17","14:41:06","0000002681"," STOP BUTTON"
"Alarm","2018/01/17","14:41:06","0000002503"," SAFETY STOP"
"Alarm","2018/01/17","14:41:06","0000002576"," OSCILLATOR MAINTENANCE REQUIRED"
"Planning","2018/01/17","14:41:06","",""
"Standby","2018/01/17","14:43:14","",""
"Alarm","2018/01/17","14:43:23","0000002503"," SAFETY STOP"
"Alarm","2018/01/17","14:43:23","0000002576"," OSCILLATOR MAINTENANCE REQUIRED"
"Standby","2018/01/17","14:44:17","",""
"Working","2018/01/17","14:44:21","",""
"Working","2018/01/17","14:44:21","",""
"Alarm","2018/01/17","14:55:03","",""
"Alarm","2018/01/17","14:55:03","0000002681"," STOP BUTTON"
"Alarm","2018/01/17","14:55:03","0000002503"," SAFETY STOP"
"Alarm","2018/01/17","14:55:03","0000002576"," OSCILLATOR MAINTENANCE REQUIRED"
"Working","2018/01/17","14:55:42","",""
"Alarm","2018/01/17","14:58:19","",""
"Alarm","2018/01/17","14:58:20","0000002681"," STOP BUTTON"
"Alarm","2018/01/17","14:58:20","0000002503"," SAFETY STOP"
"Alarm","2018/01/17","14:58:20","0000002576"," OSCILLATOR MAINTENANCE REQUIRED"
"Working","2018/01/17","14:58:33","",""
"Alarm","2018/01/17","15:27:26","",""
"Standby","2018/01/17","15:27:26","",""
"Standby","2018/01/17","15:27:26","",""
"Planning","2018/01/17","15:27:28","",""
"Alarm","2018/01/17","15:27:39","0000002503"," SAFETY STOP"
"Alarm","2018/01/17","15:27:39","0000002576"," OSCILLATOR MAINTENANCE REQUIRED"
"Planning","2018/01/17","15:27:39","",""
"Standby","2018/01/17","15:28:51","",""
"Alarm","2018/01/17","15:28:58","0000002503"," SAFETY STOP"
"Alarm","2018/01/17","15:28:58","0000002576"," OSCILLATOR MAINTENANCE REQUIRED"
"Alarm","2018/01/17","15:30:55","0000002624"," SHUTTLE DOOR IS OPEN"
"Standby","2018/01/17","15:31:13","",""
"Alarm","2018/01/17","15:40:40","0000002503"," SAFETY STOP"
"Alarm","2018/01/17","15:40:40","0000002576"," OSCILLATOR MAINTENANCE REQUIRED"
"Standby","2018/01/17","15:44:24","",""
"Working","2018/01/17","15:45:31","",""
"Working","2018/01/17","15:45:32","",""
"Planning","2018/01/17","16:28:20","",""
"Planning","2018/01/17","16:28:20","",""
"Standby","2018/01/17","16:28:21","",""
"Planning","2018/01/17","16:28:25","",""
"Standby","2018/01/17","16:28:51","",""
"Working","2018/01/17","16:29:00","",""
"Alarm","2018/01/17","16:49:21","",""
"Standby","2018/01/17","16:59:39","",""
"Working","2018/01/17","16:59:40","",""
"Working","2018/01/17","16:59:41","",""
"Alarm","2018/01/17","17:15:43","0000004542","MULTI-PIECE COMMAND ERROR"
"Alarm","2018/01/17","17:15:43","0000002576"," OSCILLATOR MAINTENANCE REQUIRED"
"Alarm","2018/01/17","17:15:43","",""
"Working","2018/01/17","17:15:43","",""
"Planning","2018/01/17","17:29:43","",""
"Alarm","2018/01/17","17:29:48","",""
"Alarm","2018/01/17","17:30:02","0000002503"," SAFETY STOP"
"Standby","2018/01/17","17:30:16","",""
"Standby","2018/01/17","17:30:16","",""
"Planning","2018/01/17","17:30:31","",""
"Standby","2018/01/17","17:34:17","",""
"Planning","2018/01/17","17:34:19","",""
"Standby","2018/01/17","17:34:45","",""
"Planning","2018/01/17","17:40:01","",""
"Standby","2018/01/17","17:43:25","",""
"Working","2018/01/17","17:43:31","",""
"Alarm","2018/01/17","17:46:23","0000002503"," SAFETY STOP"
"Alarm","2018/01/17","17:46:23","0000002576"," OSCILLATOR MAINTENANCE REQUIRED"
"Alarm","2018/01/17","17:46:23","",""
"Working","2018/01/17","17:46:23","",""
"Standby","2018/01/17","17:47:03","",""
"Working","2018/01/17","17:47:05","",""
"Working","2018/01/17","17:47:05","",""
"Standby","2018/01/17","19:10:31","",""
"Standby","2018/01/17","19:10:31","",""
"Planning","2018/01/17","19:14:33","",""
"Standby","2018/01/17","19:14:59","",""
"Alarm","2018/01/17","19:24:43","0000002503"," SAFETY STOP"
"Alarm","2018/01/17","19:24:43","0000002576"," OSCILLATOR MAINTENANCE REQUIRED"
"Standby","2018/01/17","19:32:43","",""
"Planning","2018/01/17","19:33:20","",""
"Standby","2018/01/17","19:33:49","",""
"Planning","2018/01/17","19:33:51","",""
"Standby","2018/01/17","19:33:53","",""
"Working","2018/01/17","19:34:02","",""
"Working","2018/01/17","19:34:02","",""
"Standby","2018/01/17","19:34:13","",""
"Working","2018/01/17","19:34:13","",""
"Standby","2018/01/17","19:34:13","",""
"Working","2018/01/17","19:34:14","",""
"Alarm","2018/01/17","19:34:15","",""
"Standby","2018/01/17","19:34:15","",""
"Standby","2018/01/17","19:34:15","",""
"Working","2018/01/17","19:34:16","",""
"Working","2018/01/17","19:34:17","",""
"Alarm","2018/01/17","19:34:53","",""
"Working","2018/01/17","19:34:55","",""
"Alarm","2018/01/17","19:35:27","",""
"Alarm","2018/01/17","19:35:35","0000002681"," STOP BUTTON"
"Alarm","2018/01/17","19:35:35","0000002503"," SAFETY STOP"
"Alarm","2018/01/17","19:35:35","0000002576"," OSCILLATOR MAINTENANCE REQUIRED"
"Standby","2018/01/17","19:37:55","",""
"Standby","2018/01/17","19:37:55","",""
"Working","2018/01/17","19:37:57","",""
"Working","2018/01/17","19:37:58","",""
"Alarm","2018/01/17","19:38:01","",""
"Standby","2018/01/17","19:38:04","",""
"Alarm","2018/01/17","19:38:10","0000002503"," SAFETY STOP"
"Alarm","2018/01/17","19:38:10","0000002576"," OSCILLATOR MAINTENANCE REQUIRED"
"Standby","2018/01/17","19:42:27","",""
"Working","2018/01/17","19:42:29","",""
"Working","2018/01/17","19:42:29","",""
"Alarm","2018/01/17","19:43:12","",""
"Working","2018/01/17","19:43:13","",""
"Alarm","2018/01/17","19:44:10","",""
"Working","2018/01/17","19:44:11","",""
"Alarm","2018/01/17","19:44:28","",""
"Alarm","2018/01/17","19:44:31","0000002503"," SAFETY STOP"
"Alarm","2018/01/17","19:44:31","0000002576"," OSCILLATOR MAINTENANCE REQUIRED"
"Working","2018/01/17","19:44:54","",""
"Alarm","2018/01/17","19:46:04","",""
"Working","2018/01/17","19:46:07","",""
"Alarm","2018/01/17","19:47:04","",""
"Working","2018/01/17","19:47:18","",""
"Alarm","2018/01/17","19:47:33","",""
"Working","2018/01/17","19:52:24","",""
"Alarm","2018/01/17","19:53:08","",""
"Working","2018/01/17","19:53:10","",""
"Alarm","2018/01/17","19:54:07","",""
"Working","2018/01/17","19:54:09","",""
"Alarm","2018/01/17","19:55:06","",""
"Working","2018/01/17","19:55:08","",""
"Alarm","2018/01/17","19:55:26","",""
"Alarm","2018/01/17","19:55:28","0000002503"," SAFETY STOP"
"Alarm","2018/01/17","19:55:28","0000002576"," OSCILLATOR MAINTENANCE REQUIRED"
"Working","2018/01/17","19:56:25","",""
"Alarm","2018/01/17","19:57:41","",""
"Working","2018/01/17","19:57:51","",""
"Alarm","2018/01/17","19:58:48","",""
"Working","2018/01/17","19:58:50","",""
"Alarm","2018/01/17","19:59:47","",""
"Working","2018/01/17","20:00:06","",""
"Alarm","2018/01/17","20:00:07","",""
"Working","2018/01/17","20:00:09","",""
"Alarm","2018/01/17","20:01:05","",""
"Working","2018/01/17","20:01:06","",""
"Alarm","2018/01/17","20:01:44","",""
"Working","2018/01/17","20:01:46","",""
"Alarm","2018/01/17","20:01:54","",""
"Alarm","2018/01/17","20:01:55","0000002503"," SAFETY STOP"
"Alarm","2018/01/17","20:01:55","0000002576"," OSCILLATOR MAINTENANCE REQUIRED"
"Working","2018/01/17","20:02:49","",""
"Alarm","2018/01/17","20:02:59","",""
"Standby","2018/01/17","20:03:00","",""
"Standby","2018/01/17","20:03:00","",""
"Alarm","2018/01/17","20:03:14","0000002503"," SAFETY STOP"
"Alarm","2018/01/17","20:03:14","0000002576"," OSCILLATOR MAINTENANCE REQUIRED"
"Standby","2018/01/17","20:04:08","",""
"Planning","2018/01/17","20:06:52","",""
"Standby","2018/01/17","20:07:11","",""
"Planning","2018/01/17","20:07:12","",""
"Standby","2018/01/17","20:07:14","",""
"Working","2018/01/17","20:07:21","",""
"Working","2018/01/17","20:07:21","",""
"Alarm","2018/01/17","20:07:22","0000002502"," DEAD ZONE"
"Alarm","2018/01/17","20:07:22","0000002576"," OSCILLATOR MAINTENANCE REQUIRED"
"Alarm","2018/01/17","20:07:23","",""
"Working","2018/01/17","20:07:23","",""
"Standby","2018/01/17","20:07:35","",""
"Working","2018/01/17","20:08:25","",""
"Working","2018/01/17","20:08:25","",""
"Alarm","2018/01/17","20:23:30","",""
"Alarm","2018/01/17","20:31:35","0000002503"," SAFETY STOP"
"Alarm","2018/01/17","20:31:35","0000002576"," OSCILLATOR MAINTENANCE REQUIRED"
"Working","2018/01/17","20:31:35","",""
"Alarm","2018/01/17","20:31:36","",""
"Alarm","2018/01/17","20:31:48","",""
"Standby","2018/01/17","20:31:51","",""
"Planning","2018/01/17","20:38:23","",""
"Standby","2018/01/17","20:38:49","",""
"Planning","2018/01/17","20:39:10","",""
"Standby","2018/01/17","20:40:15","",""
"Planning","2018/01/17","20:40:23","",""
"Standby","2018/01/17","20:40:41","",""
"Working","2018/01/17","20:40:46","",""
"Working","2018/01/17","20:40:46","",""
"Alarm","2018/01/17","23:14:26","",""
"Standby","2018/01/17","23:14:27","",""
"Standby","2018/01/17","23:14:27","",""
"Planning","2018/01/17","23:14:28","",""
"Standby","2018/01/17","23:14:55","",""
"Working","2018/01/17","23:15:03","",""
"Working","2018/01/17","23:15:03","",""
