0"Standby","2018/01/17","00:01:04","",""
"Standby","2018/01/17","00:03:15","",""
"PowerOFF","2018/01/17","00:03:17","",""
"","2018/01/17","01:07:53","",""
"Standby","2018/01/17","01:07:53","",""
"Standby","2018/01/17","01:15:42","",""
"Standby","2018/01/17","01:15:42","",""
"Planning","2018/01/17","01:16:03","",""
"Working","2018/01/17","01:27:57","",""
"Planning","2018/01/17","01:28:04","",""
"Alarm","2018/01/17","02:04:38","9049","Closing soft limit"
"Planning","2018/01/17","02:04:52","",""
"Working","2018/01/17","02:05:02","",""
"Planning","2018/01/17","02:05:10","",""
"Working","2018/01/17","02:05:37","",""
"Planning","2018/01/17","02:05:45","",""
"Alarm","2018/01/17","02:05:47","9049","Closing soft limit"
"Planning","2018/01/17","02:05:49","",""
"Alarm","2018/01/17","02:17:28","9049","Closing soft limit"
"Planning","2018/01/17","02:17:31","",""
"Working","2018/01/17","02:18:34","",""
"Planning","2018/01/17","02:18:41","",""
"Alarm","2018/01/17","02:22:39","9069","Both foot pedals were pressed at the same time. "
"Planning","2018/01/17","02:22:39","",""
"Alarm","2018/01/17","02:24:31","9049","Closing soft limit"
"Planning","2018/01/17","02:24:33","",""
"Working","2018/01/17","02:24:48","",""
"Planning","2018/01/17","02:24:55","",""
"Alarm","2018/01/17","02:25:10","9049","Closing soft limit"
"Planning","2018/01/17","02:25:11","",""
"Alarm","2018/01/17","02:25:27","9049","Closing soft limit"
"Planning","2018/01/17","02:25:29","",""
"Alarm","2018/01/17","02:25:37","9049","Closing soft limit"
"Planning","2018/01/17","02:25:38","",""
"Working","2018/01/17","02:25:45","",""
"Planning","2018/01/17","02:25:52","",""
"Alarm","2018/01/17","02:26:30","7008","Beam went down while clamp was open"
"Planning","2018/01/17","02:26:36","",""
"Alarm","2018/01/17","02:26:38","7007","START button was pressed while clamp is open"
"Planning","2018/01/17","02:26:39","",""
"Working","2018/01/17","02:26:56","",""
"Planning","2018/01/17","02:27:03","",""
"Alarm","2018/01/17","02:32:10","9069","Both foot pedals were pressed at the same time. "
"Planning","2018/01/17","02:32:11","",""
"Alarm","2018/01/17","02:33:27","9069","Both foot pedals were pressed at the same time. "
"Planning","2018/01/17","02:33:27","",""
"Alarm","2018/01/17","02:33:30","5047","Closing pedal was pressed while preparing to start.  "
"Alarm","2018/01/17","02:33:30","9060","Start when foot pedal is ON."
"Planning","2018/01/17","02:33:32","",""
"Alarm","2018/01/17","02:33:33","9060","Start when foot pedal is ON."
"Planning","2018/01/17","02:33:35","",""
"Alarm","2018/01/17","02:33:36","9060","Start when foot pedal is ON."
"Planning","2018/01/17","02:33:41","",""
"Working","2018/01/17","03:01:35","",""
"Planning","2018/01/17","03:01:42","",""
"Working","2018/01/17","03:03:27","",""
"Alarm","2018/01/17","03:03:29","9049","Closing soft limit"
"Planning","2018/01/17","03:03:32","",""
"Alarm","2018/01/17","03:04:01","9049","Closing soft limit"
"Planning","2018/01/17","03:04:03","",""
"Working","2018/01/17","03:11:49","",""
"Planning","2018/01/17","03:11:55","",""
"Working","2018/01/17","03:12:57","",""
"Alarm","2018/01/17","03:13:00","9049","Closing soft limit"
"Planning","2018/01/17","03:13:20","",""
"Alarm","2018/01/17","03:13:48","9049","Closing soft limit"
"Planning","2018/01/17","03:13:50","",""
"Alarm","2018/01/17","03:14:08","9049","Closing soft limit"
"Planning","2018/01/17","03:14:10","",""
"Alarm","2018/01/17","03:14:54","9049","Closing soft limit"
"Planning","2018/01/17","03:14:56","",""
"Working","2018/01/17","03:15:31","",""
"Planning","2018/01/17","03:15:37","",""
"Working","2018/01/17","03:16:17","",""
"Planning","2018/01/17","03:16:24","",""
"Working","2018/01/17","03:16:41","",""
"Alarm","2018/01/17","03:16:43","9049","Closing soft limit"
"Planning","2018/01/17","03:17:04","",""
"Alarm","2018/01/17","03:17:12","9049","Closing soft limit"
"Planning","2018/01/17","03:17:15","",""
"Alarm","2018/01/17","03:17:42","9049","Closing soft limit"
"Planning","2018/01/17","03:17:44","",""
"Working","2018/01/17","03:17:52","",""
"Planning","2018/01/17","03:17:59","",""
"Working","2018/01/17","03:18:08","",""
"Planning","2018/01/17","03:18:15","",""
"Working","2018/01/17","03:18:37","",""
"Alarm","2018/01/17","03:18:39","8907","Photoelectric Sensor Light-Beam obstruction Alarm ( In Auto mode )"
"Planning","2018/01/17","03:19:02","",""
"Working","2018/01/17","03:19:44","",""
"Planning","2018/01/17","03:19:51","",""
"Working","2018/01/17","03:23:40","",""
"Planning","2018/01/17","03:23:47","",""
"Alarm","2018/01/17","03:26:46","9038","Open the ram."
"Planning","2018/01/17","03:26:50","",""
"Working","2018/01/17","03:28:41","",""
"Planning","2018/01/17","03:28:48","",""
"Working","2018/01/17","03:28:53","",""
"Alarm","2018/01/17","03:28:54","9049","Closing soft limit"
"Planning","2018/01/17","03:28:57","",""
"Working","2018/01/17","03:29:05","",""
"Planning","2018/01/17","03:29:12","",""
"Working","2018/01/17","03:29:17","",""
"Planning","2018/01/17","03:29:24","",""
"Alarm","2018/01/17","03:29:58","9069","Both foot pedals were pressed at the same time. "
"Planning","2018/01/17","03:29:59","",""
"Working","2018/01/17","03:30:12","",""
"Alarm","2018/01/17","03:30:14","9049","Closing soft limit"
"Planning","2018/01/17","03:30:16","",""
"Working","2018/01/17","03:30:25","",""
"Planning","2018/01/17","03:30:32","",""
"Working","2018/01/17","03:30:40","",""
"Planning","2018/01/17","03:30:53","",""
"Working","2018/01/17","03:30:58","",""
"Alarm","2018/01/17","03:31:00","9049","Closing soft limit"
"Planning","2018/01/17","03:31:03","",""
"Working","2018/01/17","03:31:13","",""
"Planning","2018/01/17","03:31:20","",""
"Working","2018/01/17","03:31:31","",""
"Planning","2018/01/17","03:31:38","",""
"Working","2018/01/17","03:31:51","",""
"Planning","2018/01/17","03:31:58","",""
"Working","2018/01/17","03:33:48","",""
"Planning","2018/01/17","03:33:56","",""
"Working","2018/01/17","03:38:36","",""
"Planning","2018/01/17","03:38:43","",""
"Working","2018/01/17","03:38:45","",""
"Planning","2018/01/17","03:38:52","",""
"Working","2018/01/17","03:38:57","",""
"Planning","2018/01/17","03:39:04","",""
"Alarm","2018/01/17","03:39:33","9049","Closing soft limit"
"Planning","2018/01/17","03:39:35","",""
"Alarm","2018/01/17","03:39:48","9049","Closing soft limit"
"Planning","2018/01/17","03:39:51","",""
"Working","2018/01/17","03:39:56","",""
"Planning","2018/01/17","03:40:03","",""
"Alarm","2018/01/17","03:40:13","9049","Closing soft limit"
"Planning","2018/01/17","03:40:14","",""
"Alarm","2018/01/17","03:40:27","9049","Closing soft limit"
"Planning","2018/01/17","03:40:28","",""
"Working","2018/01/17","03:40:33","",""
"Planning","2018/01/17","03:40:46","",""
"Working","2018/01/17","03:40:47","",""
"Alarm","2018/01/17","03:40:50","9049","Closing soft limit"
"Planning","2018/01/17","03:40:52","",""
"Working","2018/01/17","03:40:58","",""
"Planning","2018/01/17","03:41:04","",""
"Working","2018/01/17","03:41:08","",""
"Planning","2018/01/17","03:41:15","",""
"Working","2018/01/17","03:41:30","",""
"Planning","2018/01/17","03:41:37","",""
"Working","2018/01/17","03:41:40","",""
"Alarm","2018/01/17","03:41:41","9049","Closing soft limit"
"Planning","2018/01/17","03:41:45","",""
"Working","2018/01/17","03:41:51","",""
"Planning","2018/01/17","03:41:57","",""
"Alarm","2018/01/17","03:43:32","9049","Closing soft limit"
"Planning","2018/01/17","03:43:35","",""
"Working","2018/01/17","03:43:41","",""
"Planning","2018/01/17","03:43:48","",""
"Working","2018/01/17","03:43:56","",""
"Planning","2018/01/17","03:44:03","",""
"Working","2018/01/17","03:45:23","",""
"Planning","2018/01/17","03:45:30","",""
"Working","2018/01/17","03:46:21","",""
"Planning","2018/01/17","03:46:28","",""
"Working","2018/01/17","04:00:59","",""
"Planning","2018/01/17","04:01:06","",""
"Working","2018/01/17","04:01:07","",""
"Alarm","2018/01/17","04:01:08","9049","Closing soft limit"
"Planning","2018/01/17","04:01:12","",""
"Working","2018/01/17","04:01:22","",""
"Planning","2018/01/17","04:01:29","",""
"Working","2018/01/17","04:01:41","",""
"Alarm","2018/01/17","04:01:49","9049","Closing soft limit"
"Planning","2018/01/17","04:01:51","",""
"Working","2018/01/17","04:01:57","",""
"Planning","2018/01/17","04:02:04","",""
"Working","2018/01/17","04:02:06","",""
"Planning","2018/01/17","04:02:13","",""
"Working","2018/01/17","04:02:15","",""
"Planning","2018/01/17","04:02:22","",""
"Working","2018/01/17","04:02:35","",""
"Alarm","2018/01/17","04:02:36","8907","Photoelectric Sensor Light-Beam obstruction Alarm ( In Auto mode )"
"Planning","2018/01/17","04:02:39","",""
"Alarm","2018/01/17","04:02:45","9049","Closing soft limit"
"Planning","2018/01/17","04:02:49","",""
"Working","2018/01/17","04:03:10","",""
"Planning","2018/01/17","04:03:16","",""
"Alarm","2018/01/17","04:03:27","9049","Closing soft limit"
"Planning","2018/01/17","04:03:29","",""
"Working","2018/01/17","04:03:56","",""
"Alarm","2018/01/17","04:03:57","8907","Photoelectric Sensor Light-Beam obstruction Alarm ( In Auto mode )"
"Planning","2018/01/17","04:04:01","",""
"Working","2018/01/17","04:04:50","",""
"Planning","2018/01/17","04:04:57","",""
"Alarm","2018/01/17","04:11:08","9038","Open the ram."
"Planning","2018/01/17","04:11:11","",""
"Working","2018/01/17","04:11:51","",""
"Alarm","2018/01/17","04:11:59","9049","Closing soft limit"
"Planning","2018/01/17","04:12:01","",""
"Working","2018/01/17","04:12:08","",""
"Planning","2018/01/17","04:12:15","",""
"Working","2018/01/17","04:12:24","",""
"Planning","2018/01/17","04:12:31","",""
"Working","2018/01/17","04:12:33","",""
"Alarm","2018/01/17","04:12:35","9049","Closing soft limit"
"Planning","2018/01/17","04:12:39","",""
"Working","2018/01/17","04:12:46","",""
"Planning","2018/01/17","04:12:53","",""
"Working","2018/01/17","04:13:02","",""
"Planning","2018/01/17","04:13:14","",""
"Working","2018/01/17","04:13:19","",""
"Alarm","2018/01/17","04:13:21","9049","Closing soft limit"
"Planning","2018/01/17","04:13:26","",""
"Working","2018/01/17","04:13:36","",""
"Planning","2018/01/17","04:13:42","",""
"Working","2018/01/17","04:13:44","",""
"Planning","2018/01/17","04:13:51","",""
"Working","2018/01/17","04:14:05","",""
"Alarm","2018/01/17","04:14:06","9853","Photoelectric Sensor Light-Beam obstruction Warning  ( In Auto mode )"
"Planning","2018/01/17","04:14:07","",""
"Working","2018/01/17","04:15:08","",""
"Planning","2018/01/17","04:15:15","",""
"Working","2018/01/17","04:18:14","",""
"Planning","2018/01/17","04:18:21","",""
"Working","2018/01/17","04:18:22","",""
"Planning","2018/01/17","04:18:29","",""
"Working","2018/01/17","04:19:21","",""
"Planning","2018/01/17","04:19:28","",""
"Working","2018/01/17","04:19:29","",""
"Alarm","2018/01/17","04:19:31","9049","Closing soft limit"
"Planning","2018/01/17","04:19:33","",""
"Working","2018/01/17","04:19:40","",""
"Planning","2018/01/17","04:19:47","",""
"Working","2018/01/17","04:19:49","",""
"Planning","2018/01/17","04:19:56","",""
"Working","2018/01/17","04:19:56","",""
"Alarm","2018/01/17","04:19:59","9049","Closing soft limit"
"Planning","2018/01/17","04:20:01","",""
"Working","2018/01/17","04:20:05","",""
"Planning","2018/01/17","04:20:18","",""
"Working","2018/01/17","04:20:22","",""
"Planning","2018/01/17","04:20:29","",""
"Working","2018/01/17","04:20:32","",""
"Alarm","2018/01/17","04:20:33","8907","Photoelectric Sensor Light-Beam obstruction Alarm ( In Auto mode )"
"Planning","2018/01/17","04:20:35","",""
"Alarm","2018/01/17","04:20:52","9049","Closing soft limit"
"Planning","2018/01/17","04:20:55","",""
"Working","2018/01/17","04:21:02","",""
"Planning","2018/01/17","04:21:09","",""
"Working","2018/01/17","04:21:14","",""
"Planning","2018/01/17","04:21:21","",""
"Working","2018/01/17","04:21:36","",""
"Planning","2018/01/17","04:21:43","",""
"Working","2018/01/17","04:22:03","",""
"Alarm","2018/01/17","04:22:04","9853","Photoelectric Sensor Light-Beam obstruction Warning  ( In Auto mode )"
"Planning","2018/01/17","04:22:05","",""
"Working","2018/01/17","04:22:43","",""
"Planning","2018/01/17","04:22:50","",""
"Working","2018/01/17","04:23:08","",""
"Planning","2018/01/17","04:23:15","",""
"Working","2018/01/17","04:26:37","",""
"Planning","2018/01/17","04:26:44","",""
"Working","2018/01/17","04:26:45","",""
"Alarm","2018/01/17","04:26:46","9049","Closing soft limit"
"Planning","2018/01/17","04:26:48","",""
"Working","2018/01/17","04:26:56","",""
"Alarm","2018/01/17","04:27:09","9049","Closing soft limit"
"Planning","2018/01/17","04:27:12","",""
"Working","2018/01/17","04:27:17","",""
"Planning","2018/01/17","04:27:33","",""
"Working","2018/01/17","04:27:38","",""
"Alarm","2018/01/17","04:27:40","9049","Closing soft limit"
"Planning","2018/01/17","04:27:43","",""
"Working","2018/01/17","04:27:54","",""
"Planning","2018/01/17","04:28:01","",""
"Working","2018/01/17","04:28:10","",""
"Planning","2018/01/17","04:28:17","",""
"Working","2018/01/17","04:29:05","",""
"Planning","2018/01/17","04:29:12","",""
"Working","2018/01/17","04:29:44","",""
"Planning","2018/01/17","04:29:51","",""
"Standby","2018/01/17","04:31:40","",""
"Standby","2018/01/17","04:31:50","",""
"PowerOFF","2018/01/17","04:31:52","",""
"","2018/01/17","05:05:21","",""
"Standby","2018/01/17","05:05:21","",""
"Alarm","2018/01/17","05:05:42","",""
"Standby","2018/01/17","05:05:42","",""
"Standby","2018/01/17","05:07:26","",""
"Standby","2018/01/17","05:07:27","",""
"Planning","2018/01/17","05:07:48","",""
"Working","2018/01/17","05:14:48","",""
"Alarm","2018/01/17","05:14:57","9049","Closing soft limit"
"Planning","2018/01/17","05:14:59","",""
"Working","2018/01/17","05:15:09","",""
"Planning","2018/01/17","05:15:16","",""
"Working","2018/01/17","05:15:30","",""
"Planning","2018/01/17","05:15:37","",""
"Working","2018/01/17","05:15:51","",""
"Alarm","2018/01/17","05:15:53","9049","Closing soft limit"
"Planning","2018/01/17","05:15:55","",""
"Working","2018/01/17","05:16:00","",""
"Planning","2018/01/17","05:16:07","",""
"Working","2018/01/17","05:16:13","",""
"Planning","2018/01/17","05:16:20","",""
"Working","2018/01/17","05:16:49","",""
"Planning","2018/01/17","05:16:56","",""
"Working","2018/01/17","05:17:07","",""
"Alarm","2018/01/17","05:17:09","9049","Closing soft limit"
"Planning","2018/01/17","05:17:12","",""
"Alarm","2018/01/17","05:17:21","9049","Closing soft limit"
"Planning","2018/01/17","05:17:26","",""
"Working","2018/01/17","05:17:38","",""
"Planning","2018/01/17","05:17:44","",""
"Alarm","2018/01/17","05:18:02","9049","Closing soft limit"
"Planning","2018/01/17","05:18:05","",""
"Alarm","2018/01/17","05:18:17","9049","Closing soft limit"
"Planning","2018/01/17","05:18:20","",""
"Working","2018/01/17","05:18:26","",""
"Planning","2018/01/17","05:18:33","",""
"Working","2018/01/17","05:19:10","",""
"Planning","2018/01/17","05:19:17","",""
"Working","2018/01/17","05:19:29","",""
"Planning","2018/01/17","05:19:36","",""
"Working","2018/01/17","05:20:24","",""
"Planning","2018/01/17","05:20:31","",""
"Working","2018/01/17","05:22:12","",""
"Alarm","2018/01/17","05:22:20","9049","Closing soft limit"
"Planning","2018/01/17","05:22:25","",""
"Working","2018/01/17","05:22:31","",""
"Planning","2018/01/17","05:22:37","",""
"Working","2018/01/17","05:23:27","",""
"Alarm","2018/01/17","05:23:34","9049","Closing soft limit"
"Planning","2018/01/17","05:23:37","",""
"Working","2018/01/17","05:23:42","",""
"Planning","2018/01/17","05:23:48","",""
"Working","2018/01/17","05:23:49","",""
"Planning","2018/01/17","05:24:01","",""
"Working","2018/01/17","05:24:04","",""
"Alarm","2018/01/17","05:24:05","8907","Photoelectric Sensor Light-Beam obstruction Alarm ( In Auto mode )"
"Planning","2018/01/17","05:24:08","",""
"Alarm","2018/01/17","05:24:13","9049","Closing soft limit"
"Planning","2018/01/17","05:24:16","",""
"Working","2018/01/17","05:24:24","",""
"Planning","2018/01/17","05:24:31","",""
"Working","2018/01/17","05:24:51","",""
"Planning","2018/01/17","05:24:58","",""
"Working","2018/01/17","05:25:11","",""
"Planning","2018/01/17","05:25:18","",""
"Working","2018/01/17","05:25:48","",""
"Planning","2018/01/17","05:25:55","",""
"Working","2018/01/17","05:26:08","",""
"Planning","2018/01/17","05:26:15","",""
"Working","2018/01/17","05:28:42","",""
"Planning","2018/01/17","05:28:54","",""
"Working","2018/01/17","05:28:56","",""
"Planning","2018/01/17","05:29:07","",""
"Working","2018/01/17","05:29:10","",""
"Planning","2018/01/17","05:29:17","",""
"Working","2018/01/17","05:29:18","",""
"Planning","2018/01/17","05:29:33","",""
"Working","2018/01/17","05:29:33","",""
"Planning","2018/01/17","05:29:40","",""
"Working","2018/01/17","05:29:46","",""
"Planning","2018/01/17","05:29:53","",""
"Working","2018/01/17","05:29:58","",""
"Planning","2018/01/17","05:30:05","",""
"Working","2018/01/17","05:31:46","",""
"Planning","2018/01/17","05:31:53","",""
"Working","2018/01/17","05:32:13","",""
"Planning","2018/01/17","05:32:20","",""
"Working","2018/01/17","05:36:11","",""
"Planning","2018/01/17","05:36:25","",""
"Working","2018/01/17","05:36:30","",""
"Planning","2018/01/17","05:36:58","",""
"Working","2018/01/17","05:37:01","",""
"Planning","2018/01/17","05:37:08","",""
"Working","2018/01/17","05:37:11","",""
"Planning","2018/01/17","05:37:18","",""
"Working","2018/01/17","05:38:00","",""
"Planning","2018/01/17","05:38:07","",""
"Working","2018/01/17","05:38:42","",""
"Planning","2018/01/17","05:38:49","",""
"Working","2018/01/17","05:39:07","",""
"Planning","2018/01/17","05:39:15","",""
"Working","2018/01/17","05:50:16","",""
"Planning","2018/01/17","05:50:29","",""
"Working","2018/01/17","05:50:33","",""
"Planning","2018/01/17","05:50:40","",""
"Working","2018/01/17","05:50:47","",""
"Planning","2018/01/17","05:51:15","",""
"Working","2018/01/17","05:51:16","",""
"Planning","2018/01/17","05:51:24","",""
"Working","2018/01/17","05:51:24","",""
"Planning","2018/01/17","05:51:31","",""
"Alarm","2018/01/17","05:52:12","9038","Open the ram."
"Planning","2018/01/17","05:52:16","",""
"Alarm","2018/01/17","05:53:24","1075","Relay is faulty(10)(Foot Switch Error)"
"Planning","2018/01/17","05:53:38","",""
"Alarm","2018/01/17","05:53:39","1075","Relay is faulty(10)(Foot Switch Error)"
"Standby","2018/01/17","05:54:28","",""
"Standby","2018/01/17","05:54:28","",""
"PowerOFF","2018/01/17","05:54:30","",""
"","2018/01/17","05:57:38","",""
"Standby","2018/01/17","05:57:38","",""
"Alarm","2018/01/17","05:57:58","",""
"Standby","2018/01/17","05:57:59","",""
"Standby","2018/01/17","06:00:47","",""
"Standby","2018/01/17","06:00:48","",""
"Planning","2018/01/17","06:01:09","",""
"Working","2018/01/17","06:04:36","",""
"Planning","2018/01/17","06:04:43","",""
"Working","2018/01/17","06:04:58","",""
"Planning","2018/01/17","06:05:05","",""
"Working","2018/01/17","06:05:40","",""
"Planning","2018/01/17","06:05:53","",""
"Working","2018/01/17","06:05:54","",""
"Planning","2018/01/17","06:06:23","",""
"Working","2018/01/17","06:06:26","",""
"Planning","2018/01/17","06:06:33","",""
"Working","2018/01/17","06:06:36","",""
"Planning","2018/01/17","06:06:43","",""
"Working","2018/01/17","06:06:48","",""
"Planning","2018/01/17","06:06:55","",""
"Alarm","2018/01/17","06:07:18","9049","Closing soft limit"
"Planning","2018/01/17","06:07:20","",""
"Alarm","2018/01/17","06:07:44","2236","Y2-axis sensor abnormal"
"Alarm","2018/01/17","06:09:09","",""
"PowerOFF","2018/01/17","06:09:11","",""
"","2018/01/17","06:12:17","",""
"Standby","2018/01/17","06:12:18","",""
"Standby","2018/01/17","06:17:14","",""
"Standby","2018/01/17","06:17:14","",""
"Planning","2018/01/17","06:17:36","",""
"Alarm","2018/01/17","06:20:59","1075","Relay is faulty(10)(Foot Switch Error)"
"Alarm","2018/01/17","06:21:06","1075","Relay is faulty(10)(Foot Switch Error)"
"Alarm","2018/01/17","06:21:06","9034","Foot pedal was pressed while hydraulic motor is off"
"Alarm","2018/01/17","06:21:06","1075","Relay is faulty(10)(Foot Switch Error)"
"Standby","2018/01/17","06:21:39","",""
"Standby","2018/01/17","06:21:40","",""
"PowerOFF","2018/01/17","06:21:43","",""
"","2018/01/17","06:26:25","",""
"Standby","2018/01/17","06:26:25","",""
"Alarm","2018/01/17","06:26:46","",""
"Standby","2018/01/17","06:26:46","",""
"Standby","2018/01/17","06:27:07","",""
"Standby","2018/01/17","06:27:08","",""
"Planning","2018/01/17","06:27:30","",""
"Working","2018/01/17","06:29:42","",""
"Planning","2018/01/17","06:29:49","",""
"Working","2018/01/17","06:30:22","",""
"Planning","2018/01/17","06:30:29","",""
"Working","2018/01/17","06:33:09","",""
"Planning","2018/01/17","06:33:28","",""
"Alarm","2018/01/17","06:33:41","9049","Closing soft limit"
"Planning","2018/01/17","06:33:46","",""
"Alarm","2018/01/17","06:35:48","9049","Closing soft limit"
"Planning","2018/01/17","06:35:50","",""
"Working","2018/01/17","06:35:56","",""
"Planning","2018/01/17","06:36:03","",""
"Working","2018/01/17","06:36:12","",""
"Planning","2018/01/17","06:36:19","",""
"Working","2018/01/17","06:36:19","",""
"Alarm","2018/01/17","06:36:21","9049","Closing soft limit"
"Planning","2018/01/17","06:36:26","",""
"Working","2018/01/17","06:36:47","",""
"Planning","2018/01/17","06:36:53","",""
"Working","2018/01/17","06:36:54","",""
"Planning","2018/01/17","06:37:05","",""
"Working","2018/01/17","06:37:09","",""
"Alarm","2018/01/17","06:37:10","9049","Closing soft limit"
"Planning","2018/01/17","06:37:14","",""
"Working","2018/01/17","06:37:24","",""
"Planning","2018/01/17","06:37:31","",""
"Working","2018/01/17","06:37:38","",""
"Planning","2018/01/17","06:37:45","",""
"Working","2018/01/17","06:37:58","",""
"Planning","2018/01/17","06:38:05","",""
"Working","2018/01/17","06:38:37","",""
"Planning","2018/01/17","06:38:44","",""
"Working","2018/01/17","07:17:47","",""
"Planning","2018/01/17","07:17:55","",""
"Working","2018/01/17","07:18:05","",""
"Planning","2018/01/17","07:18:12","",""
"Working","2018/01/17","07:18:25","",""
"Planning","2018/01/17","07:18:32","",""
"Working","2018/01/17","07:18:40","",""
"Planning","2018/01/17","07:18:47","",""
"Working","2018/01/17","07:18:56","",""
"Planning","2018/01/17","07:19:04","",""
"Working","2018/01/17","07:19:15","",""
"Planning","2018/01/17","07:19:27","",""
"Working","2018/01/17","07:19:30","",""
"Planning","2018/01/17","07:19:37","",""
"Working","2018/01/17","07:19:48","",""
"Planning","2018/01/17","07:19:55","",""
"Working","2018/01/17","07:20:10","",""
"Planning","2018/01/17","07:20:17","",""
"Working","2018/01/17","07:20:24","",""
"Planning","2018/01/17","07:20:31","",""
"Working","2018/01/17","07:21:26","",""
"Alarm","2018/01/17","07:21:30","8907","Photoelectric Sensor Light-Beam obstruction Alarm ( In Auto mode )"
"Planning","2018/01/17","07:21:36","",""
"Working","2018/01/17","07:22:07","",""
"Planning","2018/01/17","07:22:14","",""
"Working","2018/01/17","07:51:55","",""
"Planning","2018/01/17","07:52:03","",""
"Working","2018/01/17","07:52:16","",""
"Alarm","2018/01/17","07:52:17","9049","Closing soft limit"
"Planning","2018/01/17","07:52:36","",""
"Working","2018/01/17","07:52:42","",""
"Planning","2018/01/17","07:52:49","",""
"Alarm","2018/01/17","07:53:02","9049","Closing soft limit"
"Planning","2018/01/17","07:53:04","",""
"Working","2018/01/17","07:53:23","",""
"Planning","2018/01/17","07:53:30","",""
"Working","2018/01/17","07:53:33","",""
"Alarm","2018/01/17","07:53:35","9049","Closing soft limit"
"Planning","2018/01/17","07:53:38","",""
"Working","2018/01/17","07:53:46","",""
"Planning","2018/01/17","07:53:52","",""
"Alarm","2018/01/17","07:54:09","9049","Closing soft limit"
"Planning","2018/01/17","07:54:10","",""
"Working","2018/01/17","07:54:26","",""
"Planning","2018/01/17","07:54:33","",""
"Working","2018/01/17","07:54:34","",""
"Planning","2018/01/17","07:54:41","",""
"Working","2018/01/17","07:54:47","",""
"Alarm","2018/01/17","07:54:48","9049","Closing soft limit"
"Planning","2018/01/17","07:54:51","",""
"Working","2018/01/17","07:55:02","",""
"Planning","2018/01/17","07:55:08","",""
"Working","2018/01/17","07:55:18","",""
"Planning","2018/01/17","07:55:25","",""
"Working","2018/01/17","07:55:54","",""
"Planning","2018/01/17","07:56:01","",""
"Working","2018/01/17","07:56:27","",""
"Planning","2018/01/17","07:56:34","",""
"Working","2018/01/17","07:59:10","",""
"Planning","2018/01/17","07:59:22","",""
"Working","2018/01/17","07:59:26","",""
"Planning","2018/01/17","07:59:38","",""
"Working","2018/01/17","07:59:38","",""
"Planning","2018/01/17","08:00:00","",""
"Working","2018/01/17","08:00:01","",""
"Planning","2018/01/17","08:00:08","",""
"Working","2018/01/17","08:00:15","",""
"Planning","2018/01/17","08:00:22","",""
"Alarm","2018/01/17","08:00:30","9049","Closing soft limit"
"Planning","2018/01/17","08:00:34","",""
"Working","2018/01/17","08:00:47","",""
"Planning","2018/01/17","08:00:54","",""
"Working","2018/01/17","08:00:55","",""
"Planning","2018/01/17","08:01:02","",""
"Alarm","2018/01/17","08:01:08","9069","Both foot pedals were pressed at the same time. "
"Planning","2018/01/17","08:01:09","",""
"Working","2018/01/17","08:03:19","",""
"Planning","2018/01/17","08:03:27","",""
"Working","2018/01/17","08:06:52","",""
"Planning","2018/01/17","08:06:59","",""
"Working","2018/01/17","08:07:31","",""
"Planning","2018/01/17","08:07:38","",""
"Working","2018/01/17","08:42:17","",""
"Planning","2018/01/17","08:42:24","",""
"Working","2018/01/17","08:42:42","",""
"Alarm","2018/01/17","08:42:43","9049","Closing soft limit"
"Planning","2018/01/17","08:43:06","",""
"Working","2018/01/17","08:43:11","",""
"Planning","2018/01/17","08:43:18","",""
"Alarm","2018/01/17","08:43:25","9049","Closing soft limit"
"Planning","2018/01/17","08:43:27","",""
"Alarm","2018/01/17","08:43:36","9049","Closing soft limit"
"Planning","2018/01/17","08:43:39","",""
"Working","2018/01/17","08:43:45","",""
"Planning","2018/01/17","08:43:52","",""
"Working","2018/01/17","08:43:57","",""
"Alarm","2018/01/17","08:44:04","9049","Closing soft limit"
"Planning","2018/01/17","08:44:07","",""
"Working","2018/01/17","08:44:13","",""
"Planning","2018/01/17","08:44:19","",""
"Working","2018/01/17","08:44:33","",""
"Planning","2018/01/17","08:44:40","",""
"Working","2018/01/17","08:44:41","",""
"Planning","2018/01/17","08:44:48","",""
"Working","2018/01/17","08:44:54","",""
"Alarm","2018/01/17","08:44:56","9049","Closing soft limit"
"Planning","2018/01/17","08:45:00","",""
"Working","2018/01/17","08:45:08","",""
"Planning","2018/01/17","08:45:15","",""
"Working","2018/01/17","08:45:15","",""
"Planning","2018/01/17","08:45:23","",""
"Working","2018/01/17","08:45:44","",""
"Planning","2018/01/17","08:45:51","",""
"Working","2018/01/17","08:47:08","",""
"Planning","2018/01/17","08:47:15","",""
"Working","2018/01/17","08:47:55","",""
"Planning","2018/01/17","08:48:02","",""
"Working","2018/01/17","08:49:57","",""
"Planning","2018/01/17","08:50:04","",""
"Working","2018/01/17","08:50:19","",""
"Planning","2018/01/17","08:50:26","",""
"Working","2018/01/17","08:50:30","",""
"Planning","2018/01/17","08:50:37","",""
"Working","2018/01/17","08:50:41","",""
"Planning","2018/01/17","08:50:49","",""
"Working","2018/01/17","08:50:49","",""
"Alarm","2018/01/17","08:50:51","9049","Closing soft limit"
"Planning","2018/01/17","08:50:52","",""
"Working","2018/01/17","08:51:00","",""
"Planning","2018/01/17","08:51:06","",""
"Working","2018/01/17","08:51:10","",""
"Planning","2018/01/17","08:51:23","",""
"Working","2018/01/17","08:51:27","",""
"Alarm","2018/01/17","08:51:29","9049","Closing soft limit"
"Planning","2018/01/17","08:51:34","",""
"Working","2018/01/17","08:51:43","",""
"Planning","2018/01/17","08:51:50","",""
"Working","2018/01/17","08:52:00","",""
"Planning","2018/01/17","08:52:07","",""
"Working","2018/01/17","08:52:13","",""
"Planning","2018/01/17","08:52:20","",""
"Working","2018/01/17","08:52:37","",""
"Planning","2018/01/17","08:52:44","",""
"Working","2018/01/17","08:55:02","",""
"Planning","2018/01/17","08:55:24","",""
"Working","2018/01/17","08:55:26","",""
"Planning","2018/01/17","08:55:51","",""
"Working","2018/01/17","08:55:52","",""
"Planning","2018/01/17","08:55:59","",""
"Working","2018/01/17","08:56:18","",""
"Planning","2018/01/17","08:56:25","",""
"Working","2018/01/17","08:56:26","",""
"Planning","2018/01/17","08:56:33","",""
"Working","2018/01/17","08:56:41","",""
"Planning","2018/01/17","08:56:48","",""
"Working","2018/01/17","08:57:23","",""
"Planning","2018/01/17","08:57:30","",""
"Working","2018/01/17","08:59:40","",""
"Planning","2018/01/17","08:59:51","",""
"Working","2018/01/17","08:59:51","",""
"Planning","2018/01/17","09:00:32","",""
"Working","2018/01/17","09:00:40","",""
"Planning","2018/01/17","09:00:47","",""
"Working","2018/01/17","09:01:08","",""
"Planning","2018/01/17","09:01:15","",""
"Working","2018/01/17","09:01:47","",""
"Planning","2018/01/17","09:01:54","",""
"Working","2018/01/17","09:02:04","",""
"Planning","2018/01/17","09:02:11","",""
"Working","2018/01/17","09:05:34","",""
"Planning","2018/01/17","09:05:41","",""
"Working","2018/01/17","09:06:04","",""
"Planning","2018/01/17","09:06:11","",""
"Working","2018/01/17","09:06:20","",""
"Planning","2018/01/17","09:06:31","",""
"Working","2018/01/17","09:06:31","",""
"Planning","2018/01/17","09:07:00","",""
"Working","2018/01/17","09:07:02","",""
"Planning","2018/01/17","09:07:15","",""
"Working","2018/01/17","09:07:25","",""
"Planning","2018/01/17","09:07:32","",""
"Working","2018/01/17","09:07:55","",""
"Planning","2018/01/17","09:08:02","",""
"Working","2018/01/17","09:31:52","",""
"Planning","2018/01/17","09:31:59","",""
"Working","2018/01/17","09:32:42","",""
"Planning","2018/01/17","09:32:49","",""
"Working","2018/01/17","09:33:34","",""
"Planning","2018/01/17","09:33:54","",""
"Working","2018/01/17","09:34:02","",""
"Planning","2018/01/17","09:34:09","",""
"Working","2018/01/17","09:34:33","",""
"Planning","2018/01/17","09:34:40","",""
"Working","2018/01/17","09:34:46","",""
"Planning","2018/01/17","09:34:53","",""
"Working","2018/01/17","09:35:03","",""
"Planning","2018/01/17","09:35:10","",""
"Working","2018/01/17","09:35:15","",""
"Planning","2018/01/17","09:35:28","",""
"Working","2018/01/17","09:35:38","",""
"Planning","2018/01/17","09:35:45","",""
"Working","2018/01/17","09:36:08","",""
"Planning","2018/01/17","09:36:15","",""
"Working","2018/01/17","09:42:38","",""
"Planning","2018/01/17","09:42:49","",""
"Working","2018/01/17","09:43:10","",""
"Planning","2018/01/17","09:43:46","",""
"Working","2018/01/17","09:43:50","",""
"Planning","2018/01/17","09:43:57","",""
"Working","2018/01/17","09:44:12","",""
"Planning","2018/01/17","09:44:19","",""
"Working","2018/01/17","09:44:27","",""
"Planning","2018/01/17","09:44:34","",""
"Working","2018/01/17","09:45:21","",""
"Planning","2018/01/17","09:45:28","",""
"Working","2018/01/17","09:46:49","",""
"Planning","2018/01/17","09:46:56","",""
"Working","2018/01/17","09:47:20","",""
"Planning","2018/01/17","09:47:27","",""
"Working","2018/01/17","09:47:29","",""
"Planning","2018/01/17","09:47:36","",""
"Working","2018/01/17","09:47:36","",""
"Planning","2018/01/17","09:47:43","",""
"Working","2018/01/17","09:48:54","",""
"Alarm","2018/01/17","09:48:57","9049","Closing soft limit"
"Planning","2018/01/17","09:48:59","",""
"Working","2018/01/17","09:49:07","",""
"Planning","2018/01/17","09:49:22","",""
"Working","2018/01/17","09:49:23","",""
"Alarm","2018/01/17","09:49:25","9049","Closing soft limit"
"Planning","2018/01/17","09:49:28","",""
"Working","2018/01/17","09:49:35","",""
"Planning","2018/01/17","09:49:42","",""
"Working","2018/01/17","09:49:44","",""
"Planning","2018/01/17","09:49:51","",""
"Working","2018/01/17","09:50:10","",""
"Planning","2018/01/17","09:50:17","",""
"Working","2018/01/17","09:50:41","",""
"Planning","2018/01/17","09:50:48","",""
"Working","2018/01/17","10:01:32","",""
"Planning","2018/01/17","10:01:39","",""
"Working","2018/01/17","10:02:58","",""
"Planning","2018/01/17","10:03:05","",""
"Working","2018/01/17","10:03:12","",""
"Planning","2018/01/17","10:03:19","",""
"Working","2018/01/17","10:05:38","",""
"Alarm","2018/01/17","10:05:44","9049","Closing soft limit"
"Planning","2018/01/17","10:05:47","",""
"Working","2018/01/17","10:06:19","",""
"Planning","2018/01/17","10:06:26","",""
"Working","2018/01/17","10:06:29","",""
"Planning","2018/01/17","10:06:36","",""
"Working","2018/01/17","10:06:37","",""
"Alarm","2018/01/17","10:06:39","9049","Closing soft limit"
"Planning","2018/01/17","10:06:41","",""
"Working","2018/01/17","10:06:50","",""
"Planning","2018/01/17","10:07:00","",""
"Working","2018/01/17","10:07:12","",""
"Planning","2018/01/17","10:07:19","",""
"Working","2018/01/17","10:07:37","",""
"Alarm","2018/01/17","10:07:39","9049","Closing soft limit"
"Planning","2018/01/17","10:07:42","",""
"Working","2018/01/17","10:11:18","",""
"Planning","2018/01/17","10:11:25","",""
"Working","2018/01/17","10:11:25","",""
"Planning","2018/01/17","10:11:32","",""
"Working","2018/01/17","10:11:36","",""
"Planning","2018/01/17","10:11:43","",""
"Working","2018/01/17","10:11:50","",""
"Planning","2018/01/17","10:11:57","",""
"Working","2018/01/17","10:15:36","",""
"Planning","2018/01/17","10:15:54","",""
"Working","2018/01/17","10:15:55","",""
"Planning","2018/01/17","10:16:07","",""
"Working","2018/01/17","10:16:08","",""
"Planning","2018/01/17","10:16:25","",""
"Working","2018/01/17","10:16:26","",""
"Alarm","2018/01/17","10:16:27","8907","Photoelectric Sensor Light-Beam obstruction Alarm ( In Auto mode )"
"Planning","2018/01/17","10:16:30","",""
"Alarm","2018/01/17","10:16:35","9049","Closing soft limit"
"Planning","2018/01/17","10:16:38","",""
"Working","2018/01/17","10:16:45","",""
"Planning","2018/01/17","10:16:52","",""
"Working","2018/01/17","10:16:53","",""
"Alarm","2018/01/17","10:16:58","8907","Photoelectric Sensor Light-Beam obstruction Alarm ( In Auto mode )"
"Planning","2018/01/17","10:17:02","",""
"Working","2018/01/17","10:17:25","",""
"Planning","2018/01/17","10:17:32","",""
"Working","2018/01/17","10:17:49","",""
"Planning","2018/01/17","10:17:56","",""
"Working","2018/01/17","11:30:44","",""
"Alarm","2018/01/17","11:30:51","9049","Closing soft limit"
"Planning","2018/01/17","11:30:53","",""
"Working","2018/01/17","11:30:58","",""
"Alarm","2018/01/17","11:31:11","9049","Closing soft limit"
"Planning","2018/01/17","11:31:14","",""
"Working","2018/01/17","11:31:17","",""
"Alarm","2018/01/17","11:31:33","9049","Closing soft limit"
"Planning","2018/01/17","11:31:36","",""
"Working","2018/01/17","11:32:00","",""
"Planning","2018/01/17","11:32:12","",""
"Working","2018/01/17","11:32:17","",""
"Planning","2018/01/17","11:32:25","",""
"Working","2018/01/17","11:32:37","",""
"Planning","2018/01/17","11:32:44","",""
"Working","2018/01/17","11:36:40","",""
"Planning","2018/01/17","11:36:53","",""
"Working","2018/01/17","11:36:54","",""
"Planning","2018/01/17","11:37:07","",""
"Working","2018/01/17","11:37:07","",""
"Planning","2018/01/17","11:37:14","",""
"Working","2018/01/17","11:37:15","",""
"Planning","2018/01/17","11:37:37","",""
"Working","2018/01/17","11:37:42","",""
"Planning","2018/01/17","11:37:49","",""
"Working","2018/01/17","11:37:52","",""
"Planning","2018/01/17","11:37:59","",""
"Working","2018/01/17","11:38:15","",""
"Planning","2018/01/17","11:38:22","",""
"Working","2018/01/17","11:38:27","",""
"Planning","2018/01/17","11:38:34","",""
"Working","2018/01/17","11:39:51","",""
"Planning","2018/01/17","11:40:28","",""
"Working","2018/01/17","11:40:28","",""
"Planning","2018/01/17","11:40:35","",""
"Working","2018/01/17","11:40:36","",""
"Planning","2018/01/17","11:40:43","",""
"Working","2018/01/17","11:40:43","",""
"Planning","2018/01/17","11:40:56","",""
"Working","2018/01/17","11:41:00","",""
"Planning","2018/01/17","11:41:07","",""
"Working","2018/01/17","11:41:16","",""
"Planning","2018/01/17","11:41:23","",""
"Working","2018/01/17","11:43:40","",""
"Planning","2018/01/17","11:43:52","",""
"Working","2018/01/17","11:43:58","",""
"Planning","2018/01/17","11:44:25","",""
"Working","2018/01/17","11:44:27","",""
"Planning","2018/01/17","11:44:34","",""
"Working","2018/01/17","11:44:36","",""
"Planning","2018/01/17","11:44:43","",""
"Working","2018/01/17","11:44:46","",""
"Planning","2018/01/17","11:44:54","",""
"Working","2018/01/17","11:44:54","",""
"Planning","2018/01/17","11:45:01","",""
"Working","2018/01/17","11:45:06","",""
"Planning","2018/01/17","11:45:13","",""
"Working","2018/01/17","11:45:25","",""
"Planning","2018/01/17","11:45:33","",""
"Working","2018/01/17","11:49:55","",""
"Planning","2018/01/17","11:50:07","",""
"Working","2018/01/17","11:50:22","",""
"Planning","2018/01/17","11:50:38","",""
"Working","2018/01/17","11:50:39","",""
"Planning","2018/01/17","11:50:55","",""
"Working","2018/01/17","11:50:58","",""
"Planning","2018/01/17","11:51:05","",""
"Working","2018/01/17","11:51:09","",""
"Planning","2018/01/17","11:51:16","",""
"Working","2018/01/17","11:51:16","",""
"Planning","2018/01/17","11:51:23","",""
"Working","2018/01/17","11:51:39","",""
"Planning","2018/01/17","11:51:46","",""
"Working","2018/01/17","11:52:01","",""
"Planning","2018/01/17","11:52:08","",""
"Working","2018/01/17","11:53:28","",""
"Planning","2018/01/17","11:53:35","",""
"Working","2018/01/17","11:54:12","",""
"Planning","2018/01/17","11:54:19","",""
"Working","2018/01/17","11:54:20","",""
"Alarm","2018/01/17","11:54:22","9049","Closing soft limit"
"Planning","2018/01/17","11:54:40","",""
"Working","2018/01/17","11:54:47","",""
"Planning","2018/01/17","11:54:59","",""
"Working","2018/01/17","11:55:02","",""
"Alarm","2018/01/17","11:55:04","9049","Closing soft limit"
"Planning","2018/01/17","11:55:07","",""
"Working","2018/01/17","11:55:13","",""
"Planning","2018/01/17","11:55:24","",""
"Working","2018/01/17","11:55:25","",""
"Planning","2018/01/17","11:55:32","",""
"Working","2018/01/17","11:55:35","",""
"Alarm","2018/01/17","11:55:36","9049","Closing soft limit"
"Planning","2018/01/17","11:55:41","",""
"Working","2018/01/17","11:55:48","",""
"Planning","2018/01/17","11:55:54","",""
"Working","2018/01/17","11:55:57","",""
"Planning","2018/01/17","11:56:04","",""
"Working","2018/01/17","11:56:14","",""
"Planning","2018/01/17","11:56:21","",""
"Working","2018/01/17","11:56:35","",""
"Planning","2018/01/17","11:56:42","",""
"Standby","2018/01/17","12:00:17","",""
"Standby","2018/01/17","12:00:30","",""
"PowerOFF","2018/01/17","12:00:32","",""
"","2018/01/17","13:19:36","",""
"Standby","2018/01/17","13:19:36","",""
"Standby","2018/01/17","13:23:06","",""
"Standby","2018/01/17","13:23:07","",""
"Planning","2018/01/17","13:23:29","",""
"Working","2018/01/17","13:33:35","",""
"Alarm","2018/01/17","13:33:41","9049","Closing soft limit"
"Planning","2018/01/17","13:33:48","",""
"Working","2018/01/17","13:33:53","",""
"Planning","2018/01/17","13:34:04","",""
"Working","2018/01/17","13:34:09","",""
"Alarm","2018/01/17","13:34:12","9049","Closing soft limit"
"Planning","2018/01/17","13:34:13","",""
"Working","2018/01/17","13:34:17","",""
"Planning","2018/01/17","13:34:23","",""
"Working","2018/01/17","13:34:30","",""
"Planning","2018/01/17","13:34:43","",""
"Working","2018/01/17","13:34:46","",""
"Alarm","2018/01/17","13:34:47","9049","Closing soft limit"
"Planning","2018/01/17","13:34:49","",""
"Alarm","2018/01/17","13:35:40","9049","Closing soft limit"
"Planning","2018/01/17","13:35:43","",""
"Working","2018/01/17","13:35:55","",""
"Planning","2018/01/17","13:36:08","",""
"Working","2018/01/17","13:36:16","",""
"Planning","2018/01/17","13:36:23","",""
"Working","2018/01/17","13:36:35","",""
"Planning","2018/01/17","13:36:42","",""
"Working","2018/01/17","13:41:54","",""
"Planning","2018/01/17","13:42:01","",""
"Working","2018/01/17","13:42:43","",""
"Planning","2018/01/17","13:42:54","",""
"Working","2018/01/17","13:43:01","",""
"Planning","2018/01/17","13:43:08","",""
"Working","2018/01/17","13:43:10","",""
"Alarm","2018/01/17","13:43:12","9049","Closing soft limit"
"Planning","2018/01/17","13:43:14","",""
"Working","2018/01/17","13:43:17","",""
"Planning","2018/01/17","13:43:28","",""
"Working","2018/01/17","13:43:28","",""
"Planning","2018/01/17","13:43:36","",""
"Working","2018/01/17","13:43:36","",""
"Alarm","2018/01/17","13:43:38","9049","Closing soft limit"
"Planning","2018/01/17","13:43:40","",""
"Working","2018/01/17","13:43:47","",""
"Planning","2018/01/17","13:43:54","",""
"Working","2018/01/17","13:43:54","",""
"Planning","2018/01/17","13:44:01","",""
"Working","2018/01/17","13:44:06","",""
"Planning","2018/01/17","13:44:14","",""
"Working","2018/01/17","13:44:25","",""
"Planning","2018/01/17","13:44:32","",""
"Working","2018/01/17","13:48:49","",""
"Planning","2018/01/17","13:49:02","",""
"Working","2018/01/17","13:49:47","",""
"Planning","2018/01/17","13:49:57","",""
"Working","2018/01/17","13:49:58","",""
"Planning","2018/01/17","13:50:12","",""
"Working","2018/01/17","13:50:12","",""
"Planning","2018/01/17","13:50:25","",""
"Working","2018/01/17","13:50:26","",""
"Planning","2018/01/17","13:50:33","",""
"Working","2018/01/17","13:50:41","",""
"Planning","2018/01/17","13:50:48","",""
"Working","2018/01/17","13:50:49","",""
"Planning","2018/01/17","13:50:57","",""
"Working","2018/01/17","13:51:07","",""
"Planning","2018/01/17","13:51:14","",""
"Working","2018/01/17","13:51:29","",""
"Planning","2018/01/17","13:51:37","",""
"Working","2018/01/17","13:57:22","",""
"Planning","2018/01/17","13:57:30","",""
"Working","2018/01/17","13:57:34","",""
"Planning","2018/01/17","13:57:41","",""
"Working","2018/01/17","13:57:44","",""
"Planning","2018/01/17","13:57:57","",""
"Working","2018/01/17","13:58:02","",""
"Planning","2018/01/17","13:58:15","",""
"Working","2018/01/17","13:58:17","",""
"Planning","2018/01/17","13:58:24","",""
"Working","2018/01/17","13:58:24","",""
"Planning","2018/01/17","13:58:32","",""
"Working","2018/01/17","13:58:37","",""
"Planning","2018/01/17","13:58:44","",""
"Working","2018/01/17","13:58:48","",""
"Planning","2018/01/17","13:58:55","",""
"Working","2018/01/17","13:59:11","",""
"Planning","2018/01/17","13:59:18","",""
"Working","2018/01/17","13:59:40","",""
"Planning","2018/01/17","13:59:48","",""
"Working","2018/01/17","14:00:15","",""
"Planning","2018/01/17","14:00:22","",""
"Working","2018/01/17","14:04:17","",""
"Planning","2018/01/17","14:04:24","",""
"Working","2018/01/17","14:04:29","",""
"Planning","2018/01/17","14:04:36","",""
"Working","2018/01/17","14:04:38","",""
"Planning","2018/01/17","14:04:51","",""
"Working","2018/01/17","14:04:54","",""
"Planning","2018/01/17","14:05:01","",""
"Working","2018/01/17","14:05:02","",""
"Planning","2018/01/17","14:05:09","",""
"Working","2018/01/17","14:05:12","",""
"Planning","2018/01/17","14:05:19","",""
"Working","2018/01/17","14:05:19","",""
"Planning","2018/01/17","14:05:27","",""
"Working","2018/01/17","14:05:28","",""
"Alarm","2018/01/17","14:05:30","8907","Photoelectric Sensor Light-Beam obstruction Alarm ( In Auto mode )"
"Planning","2018/01/17","14:05:33","",""
"Alarm","2018/01/17","14:05:38","9049","Closing soft limit"
"Planning","2018/01/17","14:05:41","",""
"Alarm","2018/01/17","14:05:57","9049","Closing soft limit"
"Planning","2018/01/17","14:05:59","",""
"Working","2018/01/17","14:06:06","",""
"Planning","2018/01/17","14:06:12","",""
"Working","2018/01/17","14:06:20","",""
"Planning","2018/01/17","14:06:27","",""
"Working","2018/01/17","14:06:42","",""
"Planning","2018/01/17","14:06:49","",""
"Working","2018/01/17","14:07:06","",""
"Planning","2018/01/17","14:07:13","",""
"Working","2018/01/17","14:13:04","",""
"Planning","2018/01/17","14:13:11","",""
"Working","2018/01/17","14:13:20","",""
"Planning","2018/01/17","14:13:27","",""
"Working","2018/01/17","14:13:50","",""
"Planning","2018/01/17","14:14:01","",""
"Working","2018/01/17","14:14:03","",""
"Planning","2018/01/17","14:14:10","",""
"Working","2018/01/17","14:14:11","",""
"Planning","2018/01/17","14:14:18","",""
"Working","2018/01/17","14:14:19","",""
"Planning","2018/01/17","14:14:33","",""
"Working","2018/01/17","14:14:37","",""
"Planning","2018/01/17","14:14:44","",""
"Working","2018/01/17","14:14:51","",""
"Planning","2018/01/17","14:14:58","",""
"Working","2018/01/17","14:15:04","",""
"Planning","2018/01/17","14:15:11","",""
"Working","2018/01/17","14:15:34","",""
"Planning","2018/01/17","14:15:41","",""
"Working","2018/01/17","14:16:12","",""
"Planning","2018/01/17","14:16:19","",""
"Working","2018/01/17","14:21:27","",""
"Planning","2018/01/17","14:21:34","",""
"Working","2018/01/17","14:21:36","",""
"Planning","2018/01/17","14:21:55","",""
"Working","2018/01/17","14:21:56","",""
"Planning","2018/01/17","14:22:03","",""
"Working","2018/01/17","14:22:07","",""
"Planning","2018/01/17","14:22:19","",""
"Working","2018/01/17","14:22:20","",""
"Planning","2018/01/17","14:22:27","",""
"Working","2018/01/17","14:22:33","",""
"Planning","2018/01/17","14:22:40","",""
"Working","2018/01/17","14:22:42","",""
"Planning","2018/01/17","14:22:49","",""
"Working","2018/01/17","14:22:53","",""
"Planning","2018/01/17","14:23:00","",""
"Working","2018/01/17","14:23:15","",""
"Planning","2018/01/17","14:23:22","",""
"Working","2018/01/17","14:23:48","",""
"Planning","2018/01/17","14:23:55","",""
"Working","2018/01/17","14:37:55","",""
"Planning","2018/01/17","14:38:02","",""
"Working","2018/01/17","14:38:03","",""
"Planning","2018/01/17","14:38:10","",""
"Working","2018/01/17","14:38:47","",""
"Planning","2018/01/17","14:38:59","",""
"Working","2018/01/17","14:38:59","",""
"Planning","2018/01/17","14:39:06","",""
"Working","2018/01/17","14:39:07","",""
"Planning","2018/01/17","14:39:18","",""
"Working","2018/01/17","14:39:35","",""
"Planning","2018/01/17","14:39:42","",""
"Working","2018/01/17","14:39:45","",""
"Alarm","2018/01/17","14:39:47","9049","Closing soft limit"
"Planning","2018/01/17","14:39:49","",""
"Working","2018/01/17","14:40:09","",""
"Planning","2018/01/17","14:40:16","",""
"Working","2018/01/17","14:40:23","",""
"Planning","2018/01/17","14:40:30","",""
"Working","2018/01/17","14:40:42","",""
"Planning","2018/01/17","14:40:49","",""
"Working","2018/01/17","14:41:11","",""
"Planning","2018/01/17","14:41:18","",""
"Working","2018/01/17","14:43:36","",""
"Planning","2018/01/17","14:43:43","",""
"Working","2018/01/17","14:43:45","",""
"Planning","2018/01/17","14:43:52","",""
"Working","2018/01/17","14:45:12","",""
"Planning","2018/01/17","14:45:24","",""
"Working","2018/01/17","14:45:34","",""
"Planning","2018/01/17","14:45:41","",""
"Working","2018/01/17","14:45:49","",""
"Planning","2018/01/17","14:46:01","",""
"Working","2018/01/17","14:46:05","",""
"Planning","2018/01/17","14:46:12","",""
"Working","2018/01/17","14:46:21","",""
"Planning","2018/01/17","14:46:28","",""
"Working","2018/01/17","14:46:41","",""
"Planning","2018/01/17","14:46:48","",""
"Working","2018/01/17","14:46:49","",""
"Planning","2018/01/17","14:46:56","",""
"Working","2018/01/17","14:47:04","",""
"Planning","2018/01/17","14:47:11","",""
"Working","2018/01/17","14:47:40","",""
"Planning","2018/01/17","14:47:47","",""
"Working","2018/01/17","14:50:18","",""
"Planning","2018/01/17","14:50:25","",""
"Working","2018/01/17","14:50:27","",""
"Planning","2018/01/17","14:50:34","",""
"Working","2018/01/17","14:50:34","",""
"Planning","2018/01/17","14:50:45","",""
"Working","2018/01/17","14:50:45","",""
"Planning","2018/01/17","14:50:52","",""
"Working","2018/01/17","14:50:56","",""
"Planning","2018/01/17","14:51:03","",""
"Working","2018/01/17","14:51:06","",""
"Planning","2018/01/17","14:51:13","",""
"Working","2018/01/17","14:51:14","",""
"Planning","2018/01/17","14:51:21","",""
"Working","2018/01/17","14:51:29","",""
"Planning","2018/01/17","14:51:36","",""
"Working","2018/01/17","14:51:51","",""
"Planning","2018/01/17","14:51:58","",""
"Alarm","2018/01/17","14:52:18","9049","Closing soft limit"
"Planning","2018/01/17","14:52:20","",""
"Working","2018/01/17","14:52:30","",""
"Planning","2018/01/17","14:52:37","",""
"Working","2018/01/17","14:52:37","",""
"Planning","2018/01/17","14:52:45","",""
"Working","2018/01/17","14:52:48","",""
"Planning","2018/01/17","14:52:55","",""
"Working","2018/01/17","14:53:07","",""
"Planning","2018/01/17","14:53:14","",""
"Working","2018/01/17","14:56:41","",""
"Planning","2018/01/17","14:56:54","",""
"Working","2018/01/17","14:56:56","",""
"Planning","2018/01/17","14:57:15","",""
"Working","2018/01/17","14:57:17","",""
"Planning","2018/01/17","14:57:30","",""
"Working","2018/01/17","14:57:45","",""
"Planning","2018/01/17","14:57:52","",""
"Working","2018/01/17","14:57:53","",""
"Alarm","2018/01/17","14:57:54","8907","Photoelectric Sensor Light-Beam obstruction Alarm ( In Auto mode )"
"Planning","2018/01/17","14:57:57","",""
"Alarm","2018/01/17","14:57:58","9038","Open the ram."
"Planning","2018/01/17","14:58:02","",""
"Alarm","2018/01/17","14:58:07","9049","Closing soft limit"
"Planning","2018/01/17","14:58:09","",""
"Working","2018/01/17","14:58:18","",""
"Planning","2018/01/17","14:58:25","",""
"Working","2018/01/17","14:58:26","",""
"Planning","2018/01/17","14:58:33","",""
"Working","2018/01/17","14:58:50","",""
"Planning","2018/01/17","14:58:57","",""
"Working","2018/01/17","14:59:17","",""
"Planning","2018/01/17","14:59:24","",""
"Working","2018/01/17","15:01:49","",""
"Planning","2018/01/17","15:02:02","",""
"Working","2018/01/17","15:02:08","",""
"Planning","2018/01/17","15:02:21","",""
"Working","2018/01/17","15:02:53","",""
"Planning","2018/01/17","15:03:00","",""
"Working","2018/01/17","15:03:05","",""
"Planning","2018/01/17","15:03:16","",""
"Working","2018/01/17","15:03:28","",""
"Planning","2018/01/17","15:03:35","",""
"Working","2018/01/17","15:03:41","",""
"Alarm","2018/01/17","15:03:43","9049","Closing soft limit"
"Planning","2018/01/17","15:03:47","",""
"Working","2018/01/17","15:03:59","",""
"Planning","2018/01/17","15:04:06","",""
"Working","2018/01/17","15:04:10","",""
"Planning","2018/01/17","15:04:17","",""
"Working","2018/01/17","15:04:28","",""
"Planning","2018/01/17","15:04:36","",""
"Working","2018/01/17","15:04:57","",""
"Planning","2018/01/17","15:05:04","",""
"Working","2018/01/17","15:12:04","",""
"Planning","2018/01/17","15:12:16","",""
"Working","2018/01/17","15:13:00","",""
"Planning","2018/01/17","15:13:27","",""
"Working","2018/01/17","15:13:28","",""
"Planning","2018/01/17","15:13:35","",""
"Working","2018/01/17","15:13:37","",""
"Planning","2018/01/17","15:13:44","",""
"Working","2018/01/17","15:13:48","",""
"Planning","2018/01/17","15:14:02","",""
"Working","2018/01/17","15:14:11","",""
"Planning","2018/01/17","15:14:18","",""
"Working","2018/01/17","15:14:34","",""
"Planning","2018/01/17","15:14:41","",""
"Working","2018/01/17","15:18:33","",""
"Planning","2018/01/17","15:18:58","",""
"Working","2018/01/17","15:18:58","",""
"Planning","2018/01/17","15:19:22","",""
"Working","2018/01/17","15:19:26","",""
"Planning","2018/01/17","15:19:33","",""
"Working","2018/01/17","15:19:35","",""
"Planning","2018/01/17","15:19:42","",""
"Working","2018/01/17","15:19:43","",""
"Planning","2018/01/17","15:19:51","",""
"Working","2018/01/17","15:19:54","",""
"Planning","2018/01/17","15:20:01","",""
"Working","2018/01/17","15:20:23","",""
"Planning","2018/01/17","15:20:30","",""
"Working","2018/01/17","15:27:26","",""
"Planning","2018/01/17","15:27:34","",""
"Working","2018/01/17","15:27:35","",""
"Planning","2018/01/17","15:27:42","",""
"Working","2018/01/17","15:27:45","",""
"Planning","2018/01/17","15:27:56","",""
"Working","2018/01/17","15:29:19","",""
"Planning","2018/01/17","15:29:27","",""
"Working","2018/01/17","15:29:29","",""
"Planning","2018/01/17","15:29:40","",""
"Working","2018/01/17","15:30:10","",""
"Planning","2018/01/17","15:30:17","",""
"Working","2018/01/17","15:30:29","",""
"Planning","2018/01/17","15:30:36","",""
"Working","2018/01/17","15:30:43","",""
"Planning","2018/01/17","15:30:56","",""
"Working","2018/01/17","15:31:00","",""
"Planning","2018/01/17","15:31:07","",""
"Working","2018/01/17","15:31:35","",""
"Planning","2018/01/17","15:31:42","",""
"Planning","2018/01/17","16:15:05","",""
"PowerOFF","2018/01/17","16:15:07","",""
"","2018/01/17","17:32:59","",""
"Standby","2018/01/17","17:32:59","",""
"Standby","2018/01/17","17:36:34","",""
"Standby","2018/01/17","17:36:35","",""
"Planning","2018/01/17","17:36:44","",""
"Alarm","2018/01/17","17:37:31","7008","Beam went down while clamp was open"
"Planning","2018/01/17","17:37:36","",""
"Working","2018/01/17","17:47:31","",""
"Planning","2018/01/17","17:47:38","",""
"Working","2018/01/17","17:47:49","",""
"Planning","2018/01/17","17:47:57","",""
"Working","2018/01/17","17:48:06","",""
"Planning","2018/01/17","17:48:13","",""
"Working","2018/01/17","17:48:19","",""
"Planning","2018/01/17","17:48:31","",""
"Working","2018/01/17","17:49:49","",""
"Planning","2018/01/17","17:49:56","",""
"Working","2018/01/17","17:49:59","",""
"Planning","2018/01/17","17:50:06","",""
"Working","2018/01/17","17:50:17","",""
"Planning","2018/01/17","17:50:24","",""
"Working","2018/01/17","17:50:28","",""
"Planning","2018/01/17","17:50:40","",""
"Working","2018/01/17","17:51:53","",""
"Planning","2018/01/17","17:52:19","",""
"Working","2018/01/17","17:53:37","",""
"Planning","2018/01/17","17:53:54","",""
"Working","2018/01/17","17:53:59","",""
"Planning","2018/01/17","17:54:11","",""
"Working","2018/01/17","17:54:26","",""
"Planning","2018/01/17","17:54:50","",""
"Working","2018/01/17","17:59:27","",""
"Planning","2018/01/17","17:59:38","",""
"Working","2018/01/17","17:59:51","",""
"Planning","2018/01/17","18:00:12","",""
"Working","2018/01/17","18:00:13","",""
"Planning","2018/01/17","18:00:23","",""
"Working","2018/01/17","18:00:35","",""
"Planning","2018/01/17","18:00:43","",""
"Working","2018/01/17","18:00:56","",""
"Planning","2018/01/17","18:01:25","",""
"Working","2018/01/17","18:01:26","",""
"Planning","2018/01/17","18:01:34","",""
"Working","2018/01/17","18:01:50","",""
"Planning","2018/01/17","18:03:53","",""
"Working","2018/01/17","18:03:55","",""
"Planning","2018/01/17","18:04:59","",""
"Working","2018/01/17","18:05:16","",""
"Planning","2018/01/17","18:06:37","",""
"Working","2018/01/17","18:06:47","",""
"Planning","2018/01/17","18:06:57","",""
"Working","2018/01/17","18:07:11","",""
"Planning","2018/01/17","18:07:25","",""
"Working","2018/01/17","18:07:27","",""
"Planning","2018/01/17","18:08:46","",""
"Working","2018/01/17","18:19:36","",""
"Planning","2018/01/17","18:20:36","",""
"Working","2018/01/17","18:20:38","",""
"Planning","2018/01/17","18:21:00","",""
"Standby","2018/01/17","18:21:15","",""
"Planning","2018/01/17","18:21:38","",""
"Working","2018/01/17","19:24:20","",""
"Planning","2018/01/17","19:24:27","",""
"Working","2018/01/17","19:24:29","",""
"Planning","2018/01/17","19:24:36","",""
"Working","2018/01/17","19:24:37","",""
"Planning","2018/01/17","19:24:50","",""
"Working","2018/01/17","19:24:57","",""
"Planning","2018/01/17","19:25:04","",""
"Working","2018/01/17","19:29:14","",""
"Planning","2018/01/17","19:29:34","",""
"Working","2018/01/17","19:29:42","",""
"Planning","2018/01/17","19:29:51","",""
"Working","2018/01/17","19:29:54","",""
"Planning","2018/01/17","19:30:10","",""
"Working","2018/01/17","19:31:17","",""
"Planning","2018/01/17","19:31:24","",""
"Working","2018/01/17","19:31:28","",""
"Planning","2018/01/17","19:31:35","",""
"Working","2018/01/17","19:31:51","",""
"Planning","2018/01/17","19:31:58","",""
"Working","2018/01/17","19:32:21","",""
"Planning","2018/01/17","19:32:28","",""
"Working","2018/01/17","19:32:39","",""
"Planning","2018/01/17","19:32:46","",""
"Working","2018/01/17","19:33:37","",""
"Planning","2018/01/17","19:33:47","",""
"Working","2018/01/17","19:34:00","",""
"Planning","2018/01/17","19:34:07","",""
"Working","2018/01/17","19:34:11","",""
"Planning","2018/01/17","19:34:18","",""
"Working","2018/01/17","19:34:24","",""
"Planning","2018/01/17","19:34:31","",""
"Working","2018/01/17","19:35:52","",""
"Planning","2018/01/17","19:36:11","",""
"Alarm","2018/01/17","19:36:17","5007","Beam was lowered during pull back"
"Planning","2018/01/17","19:36:21","",""
"Working","2018/01/17","19:36:35","",""
"Planning","2018/01/17","19:36:42","",""
"Working","2018/01/17","19:58:18","",""
"Planning","2018/01/17","19:58:35","",""
"Working","2018/01/17","19:58:54","",""
"Planning","2018/01/17","19:59:29","",""
"Working","2018/01/17","19:59:35","",""
"Planning","2018/01/17","20:00:41","",""
"Working","2018/01/17","20:00:49","",""
"Planning","2018/01/17","20:01:10","",""
"Working","2018/01/17","20:02:32","",""
"Planning","2018/01/17","20:02:48","",""
"Working","2018/01/17","20:03:12","",""
"Planning","2018/01/17","20:04:00","",""
"Working","2018/01/17","20:04:01","",""
"Planning","2018/01/17","20:04:08","",""
"Working","2018/01/17","20:05:10","",""
"Planning","2018/01/17","20:05:37","",""
"Working","2018/01/17","20:05:37","",""
"Planning","2018/01/17","20:06:40","",""
"Working","2018/01/17","20:06:43","",""
"Planning","2018/01/17","20:07:21","",""
"Working","2018/01/17","20:07:23","",""
"Planning","2018/01/17","20:07:30","",""
"Working","2018/01/17","20:09:30","",""
"Planning","2018/01/17","20:10:11","",""
"Working","2018/01/17","20:10:23","",""
"Planning","2018/01/17","20:10:42","",""
"Working","2018/01/17","20:10:47","",""
"Planning","2018/01/17","20:12:13","",""
"Working","2018/01/17","20:12:13","",""
"Planning","2018/01/17","20:12:42","",""
"Working","2018/01/17","20:19:24","",""
"Planning","2018/01/17","20:19:31","",""
"Working","2018/01/17","20:20:25","",""
"Planning","2018/01/17","20:20:49","",""
"Working","2018/01/17","20:20:57","",""
"Planning","2018/01/17","20:21:04","",""
"Working","2018/01/17","20:21:46","",""
"Planning","2018/01/17","20:21:59","",""
"Working","2018/01/17","20:22:01","",""
"Planning","2018/01/17","20:22:08","",""
"Working","2018/01/17","20:22:43","",""
"Planning","2018/01/17","20:22:53","",""
"Working","2018/01/17","20:23:13","",""
"Planning","2018/01/17","20:23:29","",""
"Working","2018/01/17","20:23:31","",""
"Planning","2018/01/17","20:24:16","",""
"Working","2018/01/17","20:24:16","",""
"Planning","2018/01/17","20:24:37","",""
"Working","2018/01/17","20:24:48","",""
"Planning","2018/01/17","20:26:25","",""
"Working","2018/01/17","20:26:27","",""
"Planning","2018/01/17","20:28:14","",""
"Working","2018/01/17","20:28:15","",""
"Planning","2018/01/17","20:28:39","",""
"Working","2018/01/17","20:28:40","",""
"Planning","2018/01/17","20:28:47","",""
"Working","2018/01/17","20:29:01","",""
"Planning","2018/01/17","20:29:18","",""
"Working","2018/01/17","20:29:19","",""
"Planning","2018/01/17","20:29:41","",""
"Working","2018/01/17","20:29:42","",""
"Planning","2018/01/17","20:29:49","",""
"Working","2018/01/17","20:29:53","",""
"Planning","2018/01/17","20:30:21","",""
"Working","2018/01/17","20:30:36","",""
"Planning","2018/01/17","20:30:55","",""
"Working","2018/01/17","20:45:40","",""
"Planning","2018/01/17","20:46:38","",""
"Working","2018/01/17","20:46:39","",""
"Planning","2018/01/17","20:46:46","",""
"Working","2018/01/17","20:46:54","",""
"Planning","2018/01/17","20:47:10","",""
"Working","2018/01/17","20:47:10","",""
"Planning","2018/01/17","20:47:38","",""
"Working","2018/01/17","20:48:04","",""
"Planning","2018/01/17","20:48:12","",""
"Working","2018/01/17","20:48:13","",""
"Planning","2018/01/17","20:48:33","",""
"Working","2018/01/17","20:48:34","",""
"Planning","2018/01/17","20:49:10","",""
"Working","2018/01/17","20:49:10","",""
"Planning","2018/01/17","20:49:51","",""
"Working","2018/01/17","20:49:52","",""
"Planning","2018/01/17","20:50:40","",""
"Working","2018/01/17","20:50:45","",""
"Planning","2018/01/17","20:52:44","",""
"Working","2018/01/17","20:52:47","",""
"Planning","2018/01/17","20:53:13","",""
"Working","2018/01/17","20:53:14","",""
"Planning","2018/01/17","20:53:35","",""
"Working","2018/01/17","20:53:37","",""
"Planning","2018/01/17","20:55:46","",""
"Working","2018/01/17","20:55:48","",""
"Planning","2018/01/17","20:56:27","",""
"Working","2018/01/17","20:56:28","",""
"Planning","2018/01/17","20:56:36","",""
"Working","2018/01/17","20:56:56","",""
"Planning","2018/01/17","20:58:08","",""
"Working","2018/01/17","20:58:11","",""
"Planning","2018/01/17","21:01:01","",""
"Working","2018/01/17","21:03:11","",""
"Planning","2018/01/17","21:03:45","",""
"Working","2018/01/17","21:03:47","",""
"Planning","2018/01/17","21:08:21","",""
"Working","2018/01/17","21:08:31","",""
"Planning","2018/01/17","21:10:50","",""
"Working","2018/01/17","21:10:51","",""
"Planning","2018/01/17","21:11:56","",""
"Working","2018/01/17","21:11:57","",""
"Planning","2018/01/17","21:14:24","",""
"Working","2018/01/17","21:14:25","",""
"Planning","2018/01/17","21:16:50","",""
"Working","2018/01/17","21:16:50","",""
"Planning","2018/01/17","21:22:30","",""
"Working","2018/01/17","21:22:57","",""
"Planning","2018/01/17","21:26:24","",""
"Alarm","2018/01/17","21:41:33","9038","Open the ram."
"Planning","2018/01/17","21:41:36","",""
"Working","2018/01/17","21:49:07","",""
"Planning","2018/01/17","21:51:16","",""
"Working","2018/01/17","21:51:18","",""
"Planning","2018/01/17","21:51:40","",""
"Working","2018/01/17","21:51:40","",""
"Planning","2018/01/17","21:52:45","",""
"Working","2018/01/17","21:52:48","",""
"Planning","2018/01/17","21:53:19","",""
"Working","2018/01/17","21:53:25","",""
"Planning","2018/01/17","21:54:53","",""
"Working","2018/01/17","21:56:05","",""
"Planning","2018/01/17","21:56:27","",""
"Working","2018/01/17","21:56:29","",""
"Planning","2018/01/17","21:57:52","",""
"Working","2018/01/17","21:57:53","",""
"Planning","2018/01/17","22:00:27","",""
"Working","2018/01/17","22:00:30","",""
"Planning","2018/01/17","22:03:46","",""
"Working","2018/01/17","22:03:47","",""
"Planning","2018/01/17","22:07:58","",""
"Working","2018/01/17","22:07:59","",""
"Planning","2018/01/17","22:08:36","",""
"Working","2018/01/17","22:08:36","",""
"Planning","2018/01/17","22:10:17","",""
"Working","2018/01/17","22:11:03","",""
"Planning","2018/01/17","22:12:35","",""
"Working","2018/01/17","22:12:37","",""
"Planning","2018/01/17","22:13:05","",""
"Working","2018/01/17","22:13:12","",""
"Planning","2018/01/17","22:16:03","",""
"Working","2018/01/17","22:16:37","",""
"Planning","2018/01/17","22:21:33","",""
"Working","2018/01/17","22:21:35","",""
"Planning","2018/01/17","22:21:42","",""
"Working","2018/01/17","22:32:31","",""
"Planning","2018/01/17","22:32:52","",""
"Working","2018/01/17","22:32:53","",""
"Planning","2018/01/17","22:33:00","",""
"Working","2018/01/17","22:33:15","",""
"Planning","2018/01/17","22:33:33","",""
"Working","2018/01/17","22:33:33","",""
"Planning","2018/01/17","22:33:57","",""
"Working","2018/01/17","22:33:57","",""
"Planning","2018/01/17","22:34:20","",""
"Working","2018/01/17","22:34:20","",""
"Planning","2018/01/17","22:35:35","",""
"Working","2018/01/17","22:35:35","",""
"Planning","2018/01/17","22:36:42","",""
"Working","2018/01/17","22:36:44","",""
"Planning","2018/01/17","22:37:28","",""
"Working","2018/01/17","22:38:06","",""
"Planning","2018/01/17","22:38:31","",""
"Working","2018/01/17","22:38:35","",""
"Planning","2018/01/17","22:40:24","",""
"Working","2018/01/17","22:40:25","",""
"Planning","2018/01/17","22:42:21","",""
"Working","2018/01/17","22:42:38","",""
"Planning","2018/01/17","22:44:16","",""
"Working","2018/01/17","22:46:26","",""
"Planning","2018/01/17","22:47:14","",""
"Working","2018/01/17","22:47:19","",""
"Planning","2018/01/17","22:47:29","",""
"Working","2018/01/17","22:47:35","",""
"Planning","2018/01/17","22:48:52","",""
"Working","2018/01/17","22:48:54","",""
"Planning","2018/01/17","22:51:08","",""
"Working","2018/01/17","22:51:13","",""
"Planning","2018/01/17","22:53:40","",""
"Working","2018/01/17","22:53:42","",""
"Planning","2018/01/17","22:56:08","",""
"Working","2018/01/17","22:56:08","",""
"Planning","2018/01/17","22:56:22","",""
"Working","2018/01/17","22:56:27","",""
"Planning","2018/01/17","22:58:05","",""
"Working","2018/01/17","22:58:13","",""
"Planning","2018/01/17","22:59:47","",""
"Working","2018/01/17","22:59:48","",""
"Planning","2018/01/17","23:05:34","",""
"Working","2018/01/17","23:05:37","",""
"Planning","2018/01/17","23:07:30","",""
"Working","2018/01/17","23:07:39","",""
"Planning","2018/01/17","23:09:42","",""
"Working","2018/01/17","23:09:49","",""
"Planning","2018/01/17","23:13:43","",""
"Working","2018/01/17","23:13:46","",""
"Planning","2018/01/17","23:15:50","",""
"Working","2018/01/17","23:17:07","",""
"Planning","2018/01/17","23:19:15","",""
"Working","2018/01/17","23:19:30","",""
"Planning","2018/01/17","23:22:01","",""
"Working","2018/01/17","23:22:01","",""
"Planning","2018/01/17","23:28:27","",""
"Standby","2018/01/17","23:28:49","",""
"Standby","2018/01/17","23:29:15","",""
"PowerOFF","2018/01/17","23:29:17","",""
